<?xml version="1.0" encoding="UTF-8" standalone="no"?>
<svg
   xmlns:dc="http://purl.org/dc/elements/1.1/"
   xmlns:cc="http://creativecommons.org/ns#"
   xmlns:rdf="http://www.w3.org/1999/02/22-rdf-syntax-ns#"
   xmlns:svg="http://www.w3.org/2000/svg"
   xmlns="http://www.w3.org/2000/svg"
   xmlns:xlink="http://www.w3.org/1999/xlink"
   xmlns:sodipodi="http://sodipodi.sourceforge.net/DTD/sodipodi-0.dtd"
   xmlns:inkscape="http://www.inkscape.org/namespaces/inkscape"
   width="162pt"
   height="102pt"
   viewBox="0 0 162 102"
   version="1.1"
   id="svg198"
   sodipodi:docname="flowchart-exercise-3a.svg"
   inkscape:version="0.92.4 (5da689c313, 2019-01-14)">
  <metadata
     id="metadata202">
    <rdf:RDF>
      <cc:Work
         rdf:about="">
        <dc:format>image/svg+xml</dc:format>
        <dc:type
           rdf:resource="http://purl.org/dc/dcmitype/StillImage" />
        <dc:title></dc:title>
      </cc:Work>
    </rdf:RDF>
  </metadata>
  <sodipodi:namedview
     pagecolor="#ffffff"
     bordercolor="#666666"
     borderopacity="1"
     objecttolerance="10"
     gridtolerance="10"
     guidetolerance="10"
     inkscape:pageopacity="0"
     inkscape:pageshadow="2"
     inkscape:window-width="640"
     inkscape:window-height="480"
     id="namedview200"
     showgrid="false"
     inkscape:zoom="2.0441176"
     inkscape:cx="-39.007194"
     inkscape:cy="68"
     inkscape:current-layer="svg198" />
  <defs
     id="defs79">
    <g
       id="g77">
      <symbol
         overflow="visible"
         id="glyph0-0">
        <path
           style="stroke:none;"
           d="M 0.546875 1.9375 L 0.546875 -7.75 L 6.046875 -7.75 L 6.046875 1.9375 Z M 1.171875 1.328125 L 5.4375 1.328125 L 5.4375 -7.140625 L 1.171875 -7.140625 Z M 1.171875 1.328125 "
           id="path2" />
      </symbol>
      <symbol
         overflow="visible"
         id="glyph0-1">
        <path
           style="stroke:none;"
           d="M 0.359375 -8.015625 L 1.46875 -8.015625 L 3.140625 -1.234375 L 4.828125 -8.015625 L 6.046875 -8.015625 L 7.734375 -1.234375 L 9.421875 -8.015625 L 10.515625 -8.015625 L 8.5 0 L 7.140625 0 L 5.453125 -6.96875 L 3.734375 0 L 2.375 0 Z M 0.359375 -8.015625 "
           id="path5" />
      </symbol>
      <symbol
         overflow="visible"
         id="glyph0-2">
        <path
           style="stroke:none;"
           d="M 1.078125 -8.015625 L 2.171875 -8.015625 L 2.171875 0 L 1.078125 0 Z M 1.078125 -8.015625 "
           id="path8" />
      </symbol>
      <symbol
         overflow="visible"
         id="glyph0-3">
        <path
           style="stroke:none;"
           d="M 2.171875 -7.125 L 2.171875 -0.890625 L 3.46875 -0.890625 C 4.582031 -0.890625 5.394531 -1.140625 5.90625 -1.640625 C 6.414062 -2.140625 6.671875 -2.929688 6.671875 -4.015625 C 6.671875 -5.085938 6.414062 -5.875 5.90625 -6.375 C 5.394531 -6.875 4.582031 -7.125 3.46875 -7.125 Z M 1.078125 -8.015625 L 3.3125 -8.015625 C 4.863281 -8.015625 6.003906 -7.691406 6.734375 -7.046875 C 7.460938 -6.398438 7.828125 -5.390625 7.828125 -4.015625 C 7.828125 -2.628906 7.457031 -1.613281 6.71875 -0.96875 C 5.988281 -0.320312 4.851562 0 3.3125 0 L 1.078125 0 Z M 1.078125 -8.015625 "
           id="path11" />
      </symbol>
      <symbol
         overflow="visible"
         id="glyph0-4">
        <path
           style="stroke:none;"
           d="M -0.03125 -8.015625 L 6.75 -8.015625 L 6.75 -7.109375 L 3.90625 -7.109375 L 3.90625 0 L 2.8125 0 L 2.8125 -7.109375 L -0.03125 -7.109375 Z M -0.03125 -8.015625 "
           id="path14" />
      </symbol>
      <symbol
         overflow="visible"
         id="glyph0-5">
        <path
           style="stroke:none;"
           d="M 1.078125 -8.015625 L 2.171875 -8.015625 L 2.171875 -4.734375 L 6.109375 -4.734375 L 6.109375 -8.015625 L 7.1875 -8.015625 L 7.1875 0 L 6.109375 0 L 6.109375 -3.8125 L 2.171875 -3.8125 L 2.171875 0 L 1.078125 0 Z M 1.078125 -8.015625 "
           id="path17" />
      </symbol>
      <symbol
         overflow="visible"
         id="glyph0-6">
        <path
           style="stroke:none;"
           d=""
           id="path20" />
      </symbol>
      <symbol
         overflow="visible"
         id="glyph0-7">
        <path
           style="stroke:none;"
           d="M 0.53125 -3.203125 L 0.53125 -3.6875 L 2.640625 -5.796875 L 3.296875 -5.15625 L 2.046875 -3.90625 L 8.59375 -3.90625 L 8.59375 -2.984375 L 2.046875 -2.984375 L 3.296875 -1.734375 L 2.640625 -1.09375 Z M 0.53125 -3.203125 "
           id="path23" />
      </symbol>
      <symbol
         overflow="visible"
         id="glyph0-8">
        <path
           style="stroke:none;"
           d="M 3.5 -3.8125 C 2.976562 -3.8125 2.570312 -3.671875 2.28125 -3.390625 C 1.988281 -3.117188 1.84375 -2.738281 1.84375 -2.25 C 1.84375 -1.769531 1.988281 -1.390625 2.28125 -1.109375 C 2.570312 -0.835938 2.976562 -0.703125 3.5 -0.703125 C 4.007812 -0.703125 4.410156 -0.835938 4.703125 -1.109375 C 5.003906 -1.390625 5.15625 -1.769531 5.15625 -2.25 C 5.15625 -2.738281 5.007812 -3.117188 4.71875 -3.390625 C 4.425781 -3.671875 4.019531 -3.8125 3.5 -3.8125 Z M 2.40625 -4.265625 C 1.945312 -4.378906 1.585938 -4.59375 1.328125 -4.90625 C 1.066406 -5.226562 0.9375 -5.617188 0.9375 -6.078125 C 0.9375 -6.722656 1.160156 -7.234375 1.609375 -7.609375 C 2.066406 -7.984375 2.695312 -8.171875 3.5 -8.171875 C 4.289062 -8.171875 4.914062 -7.984375 5.375 -7.609375 C 5.832031 -7.234375 6.0625 -6.722656 6.0625 -6.078125 C 6.0625 -5.617188 5.929688 -5.226562 5.671875 -4.90625 C 5.410156 -4.59375 5.050781 -4.378906 4.59375 -4.265625 C 5.113281 -4.148438 5.519531 -3.914062 5.8125 -3.5625 C 6.101562 -3.207031 6.25 -2.769531 6.25 -2.25 C 6.25 -1.476562 6.007812 -0.882812 5.53125 -0.46875 C 5.0625 -0.0507812 4.382812 0.15625 3.5 0.15625 C 2.613281 0.15625 1.929688 -0.0507812 1.453125 -0.46875 C 0.984375 -0.882812 0.75 -1.476562 0.75 -2.25 C 0.75 -2.769531 0.894531 -3.207031 1.1875 -3.5625 C 1.476562 -3.914062 1.882812 -4.148438 2.40625 -4.265625 Z M 2.015625 -5.984375 C 2.015625 -5.566406 2.144531 -5.238281 2.40625 -5 C 2.664062 -4.769531 3.03125 -4.65625 3.5 -4.65625 C 3.957031 -4.65625 4.316406 -4.769531 4.578125 -5 C 4.847656 -5.238281 4.984375 -5.566406 4.984375 -5.984375 C 4.984375 -6.398438 4.847656 -6.722656 4.578125 -6.953125 C 4.316406 -7.191406 3.957031 -7.3125 3.5 -7.3125 C 3.03125 -7.3125 2.664062 -7.191406 2.40625 -6.953125 C 2.144531 -6.722656 2.015625 -6.398438 2.015625 -5.984375 Z M 2.015625 -5.984375 "
           id="path26" />
      </symbol>
      <symbol
         overflow="visible"
         id="glyph0-9">
        <path
           style="stroke:none;"
           d="M 3.5 -7.3125 C 2.9375 -7.3125 2.515625 -7.035156 2.234375 -6.484375 C 1.953125 -5.929688 1.8125 -5.101562 1.8125 -4 C 1.8125 -2.90625 1.953125 -2.082031 2.234375 -1.53125 C 2.515625 -0.976562 2.9375 -0.703125 3.5 -0.703125 C 4.0625 -0.703125 4.484375 -0.976562 4.765625 -1.53125 C 5.046875 -2.082031 5.1875 -2.90625 5.1875 -4 C 5.1875 -5.101562 5.046875 -5.929688 4.765625 -6.484375 C 4.484375 -7.035156 4.0625 -7.3125 3.5 -7.3125 Z M 3.5 -8.171875 C 4.394531 -8.171875 5.078125 -7.8125 5.546875 -7.09375 C 6.023438 -6.382812 6.265625 -5.351562 6.265625 -4 C 6.265625 -2.65625 6.023438 -1.625 5.546875 -0.90625 C 5.078125 -0.195312 4.394531 0.15625 3.5 0.15625 C 2.601562 0.15625 1.914062 -0.195312 1.4375 -0.90625 C 0.957031 -1.625 0.71875 -2.65625 0.71875 -4 C 0.71875 -5.351562 0.957031 -6.382812 1.4375 -7.09375 C 1.914062 -7.8125 2.601562 -8.171875 3.5 -8.171875 Z M 3.5 -8.171875 "
           id="path29" />
      </symbol>
      <symbol
         overflow="visible"
         id="glyph0-10">
        <path
           style="stroke:none;"
           d="M 5.359375 -3 C 5.359375 -3.726562 5.207031 -4.296875 4.90625 -4.703125 C 4.601562 -5.117188 4.191406 -5.328125 3.671875 -5.328125 C 3.148438 -5.328125 2.738281 -5.117188 2.4375 -4.703125 C 2.144531 -4.296875 2 -3.726562 2 -3 C 2 -2.269531 2.144531 -1.695312 2.4375 -1.28125 C 2.738281 -0.875 3.148438 -0.671875 3.671875 -0.671875 C 4.191406 -0.671875 4.601562 -0.875 4.90625 -1.28125 C 5.207031 -1.695312 5.359375 -2.269531 5.359375 -3 Z M 2 -5.109375 C 2.195312 -5.460938 2.453125 -5.722656 2.765625 -5.890625 C 3.085938 -6.066406 3.472656 -6.15625 3.921875 -6.15625 C 4.648438 -6.15625 5.238281 -5.863281 5.6875 -5.28125 C 6.144531 -4.707031 6.375 -3.945312 6.375 -3 C 6.375 -2.050781 6.144531 -1.285156 5.6875 -0.703125 C 5.238281 -0.128906 4.648438 0.15625 3.921875 0.15625 C 3.472656 0.15625 3.085938 0.0703125 2.765625 -0.09375 C 2.453125 -0.269531 2.195312 -0.539062 2 -0.90625 L 2 0 L 1 0 L 1 -8.359375 L 2 -8.359375 Z M 2 -5.109375 "
           id="path32" />
      </symbol>
      <symbol
         overflow="visible"
         id="glyph0-11">
        <path
           style="stroke:none;"
           d="M 3.765625 -3.03125 C 2.972656 -3.03125 2.421875 -2.9375 2.109375 -2.75 C 1.804688 -2.5625 1.65625 -2.25 1.65625 -1.8125 C 1.65625 -1.46875 1.769531 -1.191406 2 -0.984375 C 2.226562 -0.773438 2.539062 -0.671875 2.9375 -0.671875 C 3.488281 -0.671875 3.925781 -0.863281 4.25 -1.25 C 4.582031 -1.644531 4.75 -2.160156 4.75 -2.796875 L 4.75 -3.03125 Z M 5.734375 -3.4375 L 5.734375 0 L 4.75 0 L 4.75 -0.90625 C 4.53125 -0.539062 4.25 -0.269531 3.90625 -0.09375 C 3.570312 0.0703125 3.160156 0.15625 2.671875 0.15625 C 2.054688 0.15625 1.566406 -0.015625 1.203125 -0.359375 C 0.835938 -0.703125 0.65625 -1.164062 0.65625 -1.75 C 0.65625 -2.425781 0.878906 -2.9375 1.328125 -3.28125 C 1.785156 -3.625 2.46875 -3.796875 3.375 -3.796875 L 4.75 -3.796875 L 4.75 -3.890625 C 4.75 -4.347656 4.597656 -4.703125 4.296875 -4.953125 C 4.003906 -5.203125 3.585938 -5.328125 3.046875 -5.328125 C 2.703125 -5.328125 2.363281 -5.285156 2.03125 -5.203125 C 1.707031 -5.117188 1.394531 -4.992188 1.09375 -4.828125 L 1.09375 -5.734375 C 1.457031 -5.878906 1.8125 -5.984375 2.15625 -6.046875 C 2.5 -6.117188 2.828125 -6.15625 3.140625 -6.15625 C 4.015625 -6.15625 4.664062 -5.929688 5.09375 -5.484375 C 5.519531 -5.035156 5.734375 -4.351562 5.734375 -3.4375 Z M 5.734375 -3.4375 "
           id="path35" />
      </symbol>
      <symbol
         overflow="visible"
         id="glyph0-12">
        <path
           style="stroke:none;"
           d="M 5.359375 -5.78125 L 5.359375 -4.859375 C 5.085938 -5.015625 4.8125 -5.128906 4.53125 -5.203125 C 4.25 -5.285156 3.960938 -5.328125 3.671875 -5.328125 C 3.035156 -5.328125 2.539062 -5.125 2.1875 -4.71875 C 1.832031 -4.3125 1.65625 -3.738281 1.65625 -3 C 1.65625 -2.269531 1.832031 -1.703125 2.1875 -1.296875 C 2.539062 -0.890625 3.035156 -0.6875 3.671875 -0.6875 C 3.960938 -0.6875 4.25 -0.722656 4.53125 -0.796875 C 4.8125 -0.867188 5.085938 -0.984375 5.359375 -1.140625 L 5.359375 -0.234375 C 5.085938 -0.0976562 4.800781 0 4.5 0.0625 C 4.207031 0.125 3.894531 0.15625 3.5625 0.15625 C 2.65625 0.15625 1.9375 -0.125 1.40625 -0.6875 C 0.875 -1.257812 0.609375 -2.03125 0.609375 -3 C 0.609375 -3.976562 0.875 -4.75 1.40625 -5.3125 C 1.945312 -5.875 2.6875 -6.15625 3.625 -6.15625 C 3.9375 -6.15625 4.234375 -6.125 4.515625 -6.0625 C 4.804688 -6 5.085938 -5.90625 5.359375 -5.78125 Z M 5.359375 -5.78125 "
           id="path38" />
      </symbol>
      <symbol
         overflow="visible"
         id="glyph0-13">
        <path
           style="stroke:none;"
           d="M 1 -8.359375 L 2 -8.359375 L 2 -3.421875 L 4.9375 -6.015625 L 6.203125 -6.015625 L 3.015625 -3.203125 L 6.34375 0 L 5.046875 0 L 2 -2.9375 L 2 0 L 1 0 Z M 1 -8.359375 "
           id="path41" />
      </symbol>
      <symbol
         overflow="visible"
         id="glyph0-14">
        <path
           style="stroke:none;"
           d="M 5 -3.078125 C 5 -3.796875 4.847656 -4.347656 4.546875 -4.734375 C 4.253906 -5.128906 3.84375 -5.328125 3.3125 -5.328125 C 2.78125 -5.328125 2.363281 -5.128906 2.0625 -4.734375 C 1.769531 -4.347656 1.625 -3.796875 1.625 -3.078125 C 1.625 -2.367188 1.769531 -1.816406 2.0625 -1.421875 C 2.363281 -1.023438 2.78125 -0.828125 3.3125 -0.828125 C 3.84375 -0.828125 4.253906 -1.023438 4.546875 -1.421875 C 4.847656 -1.816406 5 -2.367188 5 -3.078125 Z M 5.984375 -0.75 C 5.984375 0.28125 5.753906 1.039062 5.296875 1.53125 C 4.847656 2.03125 4.15625 2.28125 3.21875 2.28125 C 2.863281 2.28125 2.53125 2.253906 2.21875 2.203125 C 1.914062 2.148438 1.617188 2.070312 1.328125 1.96875 L 1.328125 1.015625 C 1.617188 1.171875 1.90625 1.285156 2.1875 1.359375 C 2.46875 1.429688 2.757812 1.46875 3.0625 1.46875 C 3.707031 1.46875 4.191406 1.296875 4.515625 0.953125 C 4.835938 0.617188 5 0.113281 5 -0.5625 L 5 -1.0625 C 4.789062 -0.707031 4.523438 -0.441406 4.203125 -0.265625 C 3.890625 -0.0859375 3.507812 0 3.0625 0 C 2.320312 0 1.726562 -0.28125 1.28125 -0.84375 C 0.832031 -1.40625 0.609375 -2.148438 0.609375 -3.078125 C 0.609375 -4.003906 0.832031 -4.75 1.28125 -5.3125 C 1.726562 -5.875 2.320312 -6.15625 3.0625 -6.15625 C 3.507812 -6.15625 3.890625 -6.066406 4.203125 -5.890625 C 4.523438 -5.722656 4.789062 -5.460938 5 -5.109375 L 5 -6.015625 L 5.984375 -6.015625 Z M 5.984375 -0.75 "
           id="path44" />
      </symbol>
      <symbol
         overflow="visible"
         id="glyph0-15">
        <path
           style="stroke:none;"
           d="M 4.515625 -5.09375 C 4.410156 -5.15625 4.289062 -5.203125 4.15625 -5.234375 C 4.03125 -5.265625 3.890625 -5.28125 3.734375 -5.28125 C 3.171875 -5.28125 2.738281 -5.097656 2.4375 -4.734375 C 2.144531 -4.367188 2 -3.847656 2 -3.171875 L 2 0 L 1 0 L 1 -6.015625 L 2 -6.015625 L 2 -5.078125 C 2.195312 -5.441406 2.460938 -5.710938 2.796875 -5.890625 C 3.128906 -6.066406 3.535156 -6.15625 4.015625 -6.15625 C 4.085938 -6.15625 4.160156 -6.148438 4.234375 -6.140625 C 4.316406 -6.140625 4.410156 -6.128906 4.515625 -6.109375 Z M 4.515625 -5.09375 "
           id="path47" />
      </symbol>
      <symbol
         overflow="visible"
         id="glyph0-16">
        <path
           style="stroke:none;"
           d="M 3.375 -5.328125 C 2.84375 -5.328125 2.421875 -5.117188 2.109375 -4.703125 C 1.804688 -4.285156 1.65625 -3.71875 1.65625 -3 C 1.65625 -2.28125 1.804688 -1.710938 2.109375 -1.296875 C 2.410156 -0.890625 2.832031 -0.6875 3.375 -0.6875 C 3.894531 -0.6875 4.304688 -0.890625 4.609375 -1.296875 C 4.921875 -1.710938 5.078125 -2.28125 5.078125 -3 C 5.078125 -3.71875 4.921875 -4.285156 4.609375 -4.703125 C 4.304688 -5.117188 3.894531 -5.328125 3.375 -5.328125 Z M 3.375 -6.15625 C 4.226562 -6.15625 4.898438 -5.875 5.390625 -5.3125 C 5.878906 -4.757812 6.125 -3.988281 6.125 -3 C 6.125 -2.019531 5.878906 -1.25 5.390625 -0.6875 C 4.898438 -0.125 4.226562 0.15625 3.375 0.15625 C 2.507812 0.15625 1.832031 -0.125 1.34375 -0.6875 C 0.851562 -1.25 0.609375 -2.019531 0.609375 -3 C 0.609375 -3.988281 0.851562 -4.757812 1.34375 -5.3125 C 1.832031 -5.875 2.507812 -6.15625 3.375 -6.15625 Z M 3.375 -6.15625 "
           id="path50" />
      </symbol>
      <symbol
         overflow="visible"
         id="glyph0-17">
        <path
           style="stroke:none;"
           d="M 0.9375 -2.375 L 0.9375 -6.015625 L 1.921875 -6.015625 L 1.921875 -2.40625 C 1.921875 -1.84375 2.03125 -1.414062 2.25 -1.125 C 2.476562 -0.84375 2.8125 -0.703125 3.25 -0.703125 C 3.789062 -0.703125 4.210938 -0.867188 4.515625 -1.203125 C 4.828125 -1.546875 4.984375 -2.015625 4.984375 -2.609375 L 4.984375 -6.015625 L 5.96875 -6.015625 L 5.96875 0 L 4.984375 0 L 4.984375 -0.921875 C 4.742188 -0.554688 4.460938 -0.285156 4.140625 -0.109375 C 3.828125 0.0664062 3.460938 0.15625 3.046875 0.15625 C 2.359375 0.15625 1.832031 -0.0546875 1.46875 -0.484375 C 1.113281 -0.921875 0.9375 -1.550781 0.9375 -2.375 Z M 3.421875 -6.15625 Z M 3.421875 -6.15625 "
           id="path53" />
      </symbol>
      <symbol
         overflow="visible"
         id="glyph0-18">
        <path
           style="stroke:none;"
           d="M 6.03125 -3.625 L 6.03125 0 L 5.046875 0 L 5.046875 -3.59375 C 5.046875 -4.164062 4.9375 -4.59375 4.71875 -4.875 C 4.5 -5.15625 4.164062 -5.296875 3.71875 -5.296875 C 3.1875 -5.296875 2.765625 -5.125 2.453125 -4.78125 C 2.148438 -4.445312 2 -3.988281 2 -3.40625 L 2 0 L 1 0 L 1 -6.015625 L 2 -6.015625 L 2 -5.078125 C 2.226562 -5.441406 2.503906 -5.710938 2.828125 -5.890625 C 3.148438 -6.066406 3.519531 -6.15625 3.9375 -6.15625 C 4.625 -6.15625 5.144531 -5.941406 5.5 -5.515625 C 5.851562 -5.085938 6.03125 -4.457031 6.03125 -3.625 Z M 6.03125 -3.625 "
           id="path56" />
      </symbol>
      <symbol
         overflow="visible"
         id="glyph0-19">
        <path
           style="stroke:none;"
           d="M 5 -5.109375 L 5 -8.359375 L 5.984375 -8.359375 L 5.984375 0 L 5 0 L 5 -0.90625 C 4.789062 -0.539062 4.523438 -0.269531 4.203125 -0.09375 C 3.890625 0.0703125 3.507812 0.15625 3.0625 0.15625 C 2.34375 0.15625 1.753906 -0.128906 1.296875 -0.703125 C 0.835938 -1.285156 0.609375 -2.050781 0.609375 -3 C 0.609375 -3.945312 0.835938 -4.707031 1.296875 -5.28125 C 1.753906 -5.863281 2.34375 -6.15625 3.0625 -6.15625 C 3.507812 -6.15625 3.890625 -6.066406 4.203125 -5.890625 C 4.523438 -5.722656 4.789062 -5.460938 5 -5.109375 Z M 1.625 -3 C 1.625 -2.269531 1.773438 -1.695312 2.078125 -1.28125 C 2.378906 -0.875 2.789062 -0.671875 3.3125 -0.671875 C 3.832031 -0.671875 4.242188 -0.875 4.546875 -1.28125 C 4.847656 -1.695312 5 -2.269531 5 -3 C 5 -3.726562 4.847656 -4.296875 4.546875 -4.703125 C 4.242188 -5.117188 3.832031 -5.328125 3.3125 -5.328125 C 2.789062 -5.328125 2.378906 -5.117188 2.078125 -4.703125 C 1.773438 -4.296875 1.625 -3.726562 1.625 -3 Z M 1.625 -3 "
           id="path59" />
      </symbol>
      <symbol
         overflow="visible"
         id="glyph0-20">
        <path
           style="stroke:none;"
           d="M 5.609375 1.828125 L 5.609375 2.59375 L -0.109375 2.59375 L -0.109375 1.828125 Z M 5.609375 1.828125 "
           id="path62" />
      </symbol>
      <symbol
         overflow="visible"
         id="glyph0-21">
        <path
           style="stroke:none;"
           d="M 1.03125 -8.359375 L 2.03125 -8.359375 L 2.03125 0 L 1.03125 0 Z M 1.03125 -8.359375 "
           id="path65" />
      </symbol>
      <symbol
         overflow="visible"
         id="glyph0-22">
        <path
           style="stroke:none;"
           d="M 1.078125 -8.015625 L 6.15625 -8.015625 L 6.15625 -7.109375 L 2.171875 -7.109375 L 2.171875 -4.734375 L 5.984375 -4.734375 L 5.984375 -3.8125 L 2.171875 -3.8125 L 2.171875 -0.90625 L 6.25 -0.90625 L 6.25 0 L 1.078125 0 Z M 1.078125 -8.015625 "
           id="path68" />
      </symbol>
      <symbol
         overflow="visible"
         id="glyph0-23">
        <path
           style="stroke:none;"
           d="M 6.546875 -1.140625 L 6.546875 -3.296875 L 4.78125 -3.296875 L 4.78125 -4.1875 L 7.625 -4.1875 L 7.625 -0.75 C 7.207031 -0.445312 6.742188 -0.21875 6.234375 -0.0625 C 5.734375 0.0820312 5.195312 0.15625 4.625 0.15625 C 3.363281 0.15625 2.378906 -0.207031 1.671875 -0.9375 C 0.972656 -1.675781 0.625 -2.695312 0.625 -4 C 0.625 -5.3125 0.972656 -6.332031 1.671875 -7.0625 C 2.378906 -7.800781 3.363281 -8.171875 4.625 -8.171875 C 5.144531 -8.171875 5.640625 -8.101562 6.109375 -7.96875 C 6.578125 -7.84375 7.007812 -7.65625 7.40625 -7.40625 L 7.40625 -6.25 C 7.007812 -6.582031 6.582031 -6.832031 6.125 -7 C 5.675781 -7.175781 5.203125 -7.265625 4.703125 -7.265625 C 3.722656 -7.265625 2.988281 -6.988281 2.5 -6.4375 C 2.007812 -5.894531 1.765625 -5.082031 1.765625 -4 C 1.765625 -2.914062 2.007812 -2.097656 2.5 -1.546875 C 2.988281 -1.003906 3.722656 -0.734375 4.703125 -0.734375 C 5.085938 -0.734375 5.429688 -0.765625 5.734375 -0.828125 C 6.035156 -0.898438 6.304688 -1.003906 6.546875 -1.140625 Z M 6.546875 -1.140625 "
           id="path71" />
      </symbol>
      <symbol
         overflow="visible"
         id="glyph0-24">
        <path
           style="stroke:none;"
           d="M 3.625 -4.4375 C 3.144531 -4.4375 2.757812 -4.269531 2.46875 -3.9375 C 2.1875 -3.601562 2.046875 -3.148438 2.046875 -2.578125 C 2.046875 -1.992188 2.1875 -1.535156 2.46875 -1.203125 C 2.757812 -0.867188 3.144531 -0.703125 3.625 -0.703125 C 4.113281 -0.703125 4.5 -0.867188 4.78125 -1.203125 C 5.070312 -1.535156 5.21875 -1.992188 5.21875 -2.578125 C 5.21875 -3.148438 5.070312 -3.601562 4.78125 -3.9375 C 4.5 -4.269531 4.113281 -4.4375 3.625 -4.4375 Z M 5.78125 -7.84375 L 5.78125 -6.859375 C 5.507812 -6.984375 5.234375 -7.078125 4.953125 -7.140625 C 4.679688 -7.210938 4.410156 -7.25 4.140625 -7.25 C 3.421875 -7.25 2.867188 -7.003906 2.484375 -6.515625 C 2.109375 -6.035156 1.894531 -5.304688 1.84375 -4.328125 C 2.0625 -4.640625 2.328125 -4.878906 2.640625 -5.046875 C 2.960938 -5.210938 3.316406 -5.296875 3.703125 -5.296875 C 4.503906 -5.296875 5.140625 -5.050781 5.609375 -4.5625 C 6.078125 -4.070312 6.3125 -3.410156 6.3125 -2.578125 C 6.3125 -1.753906 6.066406 -1.09375 5.578125 -0.59375 C 5.085938 -0.09375 4.4375 0.15625 3.625 0.15625 C 2.695312 0.15625 1.988281 -0.195312 1.5 -0.90625 C 1.007812 -1.625 0.765625 -2.65625 0.765625 -4 C 0.765625 -5.269531 1.066406 -6.28125 1.671875 -7.03125 C 2.273438 -7.789062 3.082031 -8.171875 4.09375 -8.171875 C 4.363281 -8.171875 4.632812 -8.140625 4.90625 -8.078125 C 5.1875 -8.023438 5.476562 -7.945312 5.78125 -7.84375 Z M 5.78125 -7.84375 "
           id="path74" />
      </symbol>
    </g>
  </defs>
  <path
     inkscape:connector-curvature="0"
     id="path83"
     d="M 81.10156,21.19922 V 34.77734"
     style="fill:none;stroke:#000000;stroke-width:1;stroke-linecap:butt;stroke-linejoin:miter;stroke-miterlimit:10;stroke-opacity:1" />
  <path
     inkscape:connector-curvature="0"
     id="path85"
     d="m 81.10156,40.77734 -4,-8 4,2 4,-2 z m 0,0"
     style="fill:#000000;fill-opacity:1;fill-rule:evenodd;stroke:#000000;stroke-width:1;stroke-linecap:butt;stroke-linejoin:miter;stroke-miterlimit:10;stroke-opacity:1" />
  <path
     inkscape:connector-curvature="0"
     id="path87"
     d="M 81.10156,61.19922 V 74.77734"
     style="fill:none;stroke:#000000;stroke-width:1;stroke-linecap:butt;stroke-linejoin:miter;stroke-miterlimit:10;stroke-opacity:1" />
  <path
     inkscape:connector-curvature="0"
     id="path89"
     d="m 81.10156,80.77734 -4,-8 4,2 4,-2 z m 0,0"
     style="fill:#000000;fill-opacity:1;fill-rule:evenodd;stroke:#000000;stroke-width:1;stroke-linecap:butt;stroke-linejoin:miter;stroke-miterlimit:10;stroke-opacity:1" />
  <path
     inkscape:connector-curvature="0"
     id="path91"
     d="M 1.1015625,1.1015625 H 161.10156 V 21.10156 H 1.1015625 Z m 0,0"
     style="fill:#a3d4a6;fill-opacity:1;fill-rule:evenodd;stroke:#000000;stroke-width:1;stroke-linecap:butt;stroke-linejoin:miter;stroke-miterlimit:10;stroke-opacity:1" />
  <g
     id="g115"
     style="fill:#000000;fill-opacity:1">
    <use
       height="100%"
       width="100%"
       id="use93"
       y="15.032661"
       x="42.722656"
       xlink:href="#glyph0-1" />
    <use
       height="100%"
       width="100%"
       id="use95"
       y="15.032661"
       x="53.599121"
       xlink:href="#glyph0-2" />
    <use
       height="100%"
       width="100%"
       id="use97"
       y="15.032661"
       x="56.843208"
       xlink:href="#glyph0-3" />
    <use
       height="100%"
       width="100%"
       id="use99"
       y="15.032661"
       x="65.31353"
       xlink:href="#glyph0-4" />
    <use
       height="100%"
       width="100%"
       id="use101"
       y="15.032661"
       x="72.032822"
       xlink:href="#glyph0-5" />
    <use
       height="100%"
       width="100%"
       id="use103"
       y="15.032661"
       x="80.304306"
       xlink:href="#glyph0-6" />
    <use
       height="100%"
       width="100%"
       id="use105"
       y="15.032661"
       x="83.800941"
       xlink:href="#glyph0-7" />
    <use
       height="100%"
       width="100%"
       id="use107"
       y="15.032661"
       x="93.017792"
       xlink:href="#glyph0-6" />
    <use
       height="100%"
       width="100%"
       id="use109"
       y="15.032661"
       x="96.514435"
       xlink:href="#glyph0-8" />
    <use
       height="100%"
       width="100%"
       id="use111"
       y="15.032661"
       x="103.51286"
       xlink:href="#glyph0-9" />
    <use
       height="100%"
       width="100%"
       id="use113"
       y="15.032661"
       x="110.51128"
       xlink:href="#glyph0-9" />
  </g>
  <path
     inkscape:connector-curvature="0"
     id="path117"
     d="M 1.1015625,81.10156 H 161.10156 v 20 H 1.1015625 Z m 0,0"
     style="fill:#a3d4a6;fill-opacity:1;fill-rule:evenodd;stroke:#000000;stroke-width:1;stroke-linecap:butt;stroke-linejoin:miter;stroke-miterlimit:10;stroke-opacity:1" />
  <g
     id="g167"
     style="fill:#000000;fill-opacity:1">
    <use
       height="100%"
       width="100%"
       id="use119"
       y="95.032661"
       x="8.8164062"
       xlink:href="#glyph0-10" />
    <use
       height="100%"
       width="100%"
       id="use121"
       y="95.032661"
       x="15.798828"
       xlink:href="#glyph0-11" />
    <use
       height="100%"
       width="100%"
       id="use123"
       y="95.032661"
       x="22.539551"
       xlink:href="#glyph0-12" />
    <use
       height="100%"
       width="100%"
       id="use125"
       y="95.032661"
       x="28.587458"
       xlink:href="#glyph0-13" />
    <use
       height="100%"
       width="100%"
       id="use127"
       y="95.032661"
       x="34.957626"
       xlink:href="#glyph0-14" />
    <use
       height="100%"
       width="100%"
       id="use129"
       y="95.032661"
       x="41.940048"
       xlink:href="#glyph0-15" />
    <use
       height="100%"
       width="100%"
       id="use131"
       y="95.032661"
       x="46.220921"
       xlink:href="#glyph0-16" />
    <use
       height="100%"
       width="100%"
       id="use133"
       y="95.032661"
       x="52.95079"
       xlink:href="#glyph0-17" />
    <use
       height="100%"
       width="100%"
       id="use135"
       y="95.032661"
       x="59.922363"
       xlink:href="#glyph0-18" />
    <use
       height="100%"
       width="100%"
       id="use137"
       y="95.032661"
       x="66.893936"
       xlink:href="#glyph0-19" />
    <use
       height="100%"
       width="100%"
       id="use139"
       y="95.032661"
       x="73.876358"
       xlink:href="#glyph0-20" />
    <use
       height="100%"
       width="100%"
       id="use141"
       y="95.032661"
       x="79.376305"
       xlink:href="#glyph0-12" />
    <use
       height="100%"
       width="100%"
       id="use143"
       y="95.032661"
       x="85.42421"
       xlink:href="#glyph0-16" />
    <use
       height="100%"
       width="100%"
       id="use145"
       y="95.032661"
       x="92.154083"
       xlink:href="#glyph0-21" />
    <use
       height="100%"
       width="100%"
       id="use147"
       y="95.032661"
       x="95.210175"
       xlink:href="#glyph0-16" />
    <use
       height="100%"
       width="100%"
       id="use149"
       y="95.032661"
       x="101.94005"
       xlink:href="#glyph0-17" />
    <use
       height="100%"
       width="100%"
       id="use151"
       y="95.032661"
       x="108.91162"
       xlink:href="#glyph0-15" />
    <use
       height="100%"
       width="100%"
       id="use153"
       y="95.032661"
       x="113.43419"
       xlink:href="#glyph0-6" />
    <use
       height="100%"
       width="100%"
       id="use155"
       y="95.032661"
       x="116.93082"
       xlink:href="#glyph0-7" />
    <use
       height="100%"
       width="100%"
       id="use157"
       y="95.032661"
       x="126.14767"
       xlink:href="#glyph0-6" />
    <use
       height="100%"
       width="100%"
       id="use159"
       y="95.032661"
       x="129.64432"
       xlink:href="#glyph0-10" />
    <use
       height="100%"
       width="100%"
       id="use161"
       y="95.032661"
       x="136.62674"
       xlink:href="#glyph0-21" />
    <use
       height="100%"
       width="100%"
       id="use163"
       y="95.032661"
       x="139.68283"
       xlink:href="#glyph0-11" />
    <use
       height="100%"
       width="100%"
       id="use165"
       y="95.032661"
       x="146.42355"
       xlink:href="#glyph0-17" />
  </g>
  <path
     inkscape:connector-curvature="0"
     id="path169"
     d="M 1.1015625,41.10156 H 161.10156 v 20 H 1.1015625 Z m 0,0"
     style="fill:#a3d4a6;fill-opacity:1;fill-rule:evenodd;stroke:#000000;stroke-width:1;stroke-linecap:butt;stroke-linejoin:miter;stroke-miterlimit:10;stroke-opacity:1" />
  <g
     id="g195"
     style="fill:#000000;fill-opacity:1">
    <use
       height="100%"
       width="100%"
       id="use171"
       y="55.032661"
       x="41.511719"
       xlink:href="#glyph0-5" />
    <use
       height="100%"
       width="100%"
       id="use173"
       y="55.032661"
       x="49.783203"
       xlink:href="#glyph0-22" />
    <use
       height="100%"
       width="100%"
       id="use175"
       y="55.032661"
       x="56.733345"
       xlink:href="#glyph0-2" />
    <use
       height="100%"
       width="100%"
       id="use177"
       y="55.032661"
       x="59.977432"
       xlink:href="#glyph0-23" />
    <use
       height="100%"
       width="100%"
       id="use179"
       y="55.032661"
       x="68.501465"
       xlink:href="#glyph0-5" />
    <use
       height="100%"
       width="100%"
       id="use181"
       y="55.032661"
       x="76.772949"
       xlink:href="#glyph0-4" />
    <use
       height="100%"
       width="100%"
       id="use183"
       y="55.032661"
       x="83.492241"
       xlink:href="#glyph0-6" />
    <use
       height="100%"
       width="100%"
       id="use185"
       y="55.032661"
       x="86.988876"
       xlink:href="#glyph0-7" />
    <use
       height="100%"
       width="100%"
       id="use187"
       y="55.032661"
       x="96.205727"
       xlink:href="#glyph0-6" />
    <use
       height="100%"
       width="100%"
       id="use189"
       y="55.032661"
       x="99.702362"
       xlink:href="#glyph0-24" />
    <use
       height="100%"
       width="100%"
       id="use191"
       y="55.032661"
       x="106.70079"
       xlink:href="#glyph0-9" />
    <use
       height="100%"
       width="100%"
       id="use193"
       y="55.032661"
       x="113.69922"
       xlink:href="#glyph0-9" />
  </g>
</svg>
