<?xml version="1.0" encoding="UTF-8" standalone="no"?>
<svg
   xmlns:dc="http://purl.org/dc/elements/1.1/"
   xmlns:cc="http://creativecommons.org/ns#"
   xmlns:rdf="http://www.w3.org/1999/02/22-rdf-syntax-ns#"
   xmlns:svg="http://www.w3.org/2000/svg"
   xmlns="http://www.w3.org/2000/svg"
   xmlns:xlink="http://www.w3.org/1999/xlink"
   xmlns:sodipodi="http://sodipodi.sourceforge.net/DTD/sodipodi-0.dtd"
   xmlns:inkscape="http://www.inkscape.org/namespaces/inkscape"
   width="732pt"
   height="262pt"
   viewBox="0 0 732 262"
   version="1.1"
   id="svg779"
   sodipodi:docname="flowchart-exercise-3b.svg"
   inkscape:version="0.92.4 (5da689c313, 2019-01-14)">
  <metadata
     id="metadata783">
    <rdf:RDF>
      <cc:Work
         rdf:about="">
        <dc:format>image/svg+xml</dc:format>
        <dc:type
           rdf:resource="http://purl.org/dc/dcmitype/StillImage" />
        <dc:title></dc:title>
      </cc:Work>
    </rdf:RDF>
  </metadata>
  <sodipodi:namedview
     pagecolor="#ffffff"
     bordercolor="#666666"
     borderopacity="1"
     objecttolerance="10"
     gridtolerance="10"
     guidetolerance="10"
     inkscape:pageopacity="0"
     inkscape:pageshadow="2"
     inkscape:window-width="640"
     inkscape:window-height="480"
     id="namedview781"
     showgrid="false"
     inkscape:zoom="0.79580153"
     inkscape:cx="110.39329"
     inkscape:cy="174.66667"
     inkscape:current-layer="svg779" />
  <defs
     id="defs148">
    <g
       id="g146">
      <symbol
         overflow="visible"
         id="glyph0-0">
        <path
           style="stroke:none;"
           d="M 0.546875 1.9375 L 0.546875 -7.75 L 6.046875 -7.75 L 6.046875 1.9375 Z M 1.171875 1.328125 L 5.4375 1.328125 L 5.4375 -7.140625 L 1.171875 -7.140625 Z M 1.171875 1.328125 "
           id="path2" />
      </symbol>
      <symbol
         overflow="visible"
         id="glyph0-1">
        <path
           style="stroke:none;"
           d="M 3.765625 -3.03125 C 2.972656 -3.03125 2.421875 -2.9375 2.109375 -2.75 C 1.804688 -2.5625 1.65625 -2.25 1.65625 -1.8125 C 1.65625 -1.46875 1.769531 -1.191406 2 -0.984375 C 2.226562 -0.773438 2.539062 -0.671875 2.9375 -0.671875 C 3.488281 -0.671875 3.925781 -0.863281 4.25 -1.25 C 4.582031 -1.644531 4.75 -2.160156 4.75 -2.796875 L 4.75 -3.03125 Z M 5.734375 -3.4375 L 5.734375 0 L 4.75 0 L 4.75 -0.90625 C 4.53125 -0.539062 4.25 -0.269531 3.90625 -0.09375 C 3.570312 0.0703125 3.160156 0.15625 2.671875 0.15625 C 2.054688 0.15625 1.566406 -0.015625 1.203125 -0.359375 C 0.835938 -0.703125 0.65625 -1.164062 0.65625 -1.75 C 0.65625 -2.425781 0.878906 -2.9375 1.328125 -3.28125 C 1.785156 -3.625 2.46875 -3.796875 3.375 -3.796875 L 4.75 -3.796875 L 4.75 -3.890625 C 4.75 -4.347656 4.597656 -4.703125 4.296875 -4.953125 C 4.003906 -5.203125 3.585938 -5.328125 3.046875 -5.328125 C 2.703125 -5.328125 2.363281 -5.285156 2.03125 -5.203125 C 1.707031 -5.117188 1.394531 -4.992188 1.09375 -4.828125 L 1.09375 -5.734375 C 1.457031 -5.878906 1.8125 -5.984375 2.15625 -6.046875 C 2.5 -6.117188 2.828125 -6.15625 3.140625 -6.15625 C 4.015625 -6.15625 4.664062 -5.929688 5.09375 -5.484375 C 5.519531 -5.035156 5.734375 -4.351562 5.734375 -3.4375 Z M 5.734375 -3.4375 "
           id="path5" />
      </symbol>
      <symbol
         overflow="visible"
         id="glyph0-2">
        <path
           style="stroke:none;"
           d="M 1.625 -3 C 1.625 -2.269531 1.773438 -1.695312 2.078125 -1.28125 C 2.378906 -0.875 2.789062 -0.671875 3.3125 -0.671875 C 3.832031 -0.671875 4.242188 -0.875 4.546875 -1.28125 C 4.847656 -1.695312 5 -2.269531 5 -3 C 5 -3.726562 4.847656 -4.296875 4.546875 -4.703125 C 4.242188 -5.117188 3.832031 -5.328125 3.3125 -5.328125 C 2.789062 -5.328125 2.378906 -5.117188 2.078125 -4.703125 C 1.773438 -4.296875 1.625 -3.726562 1.625 -3 Z M 5 -0.90625 C 4.789062 -0.539062 4.523438 -0.269531 4.203125 -0.09375 C 3.890625 0.0703125 3.507812 0.15625 3.0625 0.15625 C 2.34375 0.15625 1.753906 -0.128906 1.296875 -0.703125 C 0.835938 -1.285156 0.609375 -2.050781 0.609375 -3 C 0.609375 -3.945312 0.835938 -4.707031 1.296875 -5.28125 C 1.753906 -5.863281 2.34375 -6.15625 3.0625 -6.15625 C 3.507812 -6.15625 3.890625 -6.066406 4.203125 -5.890625 C 4.523438 -5.722656 4.789062 -5.460938 5 -5.109375 L 5 -6.015625 L 5.984375 -6.015625 L 5.984375 2.28125 L 5 2.28125 Z M 5 -0.90625 "
           id="path8" />
      </symbol>
      <symbol
         overflow="visible"
         id="glyph0-3">
        <path
           style="stroke:none;"
           d="M 0.9375 -2.375 L 0.9375 -6.015625 L 1.921875 -6.015625 L 1.921875 -2.40625 C 1.921875 -1.84375 2.03125 -1.414062 2.25 -1.125 C 2.476562 -0.84375 2.8125 -0.703125 3.25 -0.703125 C 3.789062 -0.703125 4.210938 -0.867188 4.515625 -1.203125 C 4.828125 -1.546875 4.984375 -2.015625 4.984375 -2.609375 L 4.984375 -6.015625 L 5.96875 -6.015625 L 5.96875 0 L 4.984375 0 L 4.984375 -0.921875 C 4.742188 -0.554688 4.460938 -0.285156 4.140625 -0.109375 C 3.828125 0.0664062 3.460938 0.15625 3.046875 0.15625 C 2.359375 0.15625 1.832031 -0.0546875 1.46875 -0.484375 C 1.113281 -0.921875 0.9375 -1.550781 0.9375 -2.375 Z M 3.421875 -6.15625 Z M 3.421875 -6.15625 "
           id="path11" />
      </symbol>
      <symbol
         overflow="visible"
         id="glyph0-4">
        <path
           style="stroke:none;"
           d="M 4.515625 -5.09375 C 4.410156 -5.15625 4.289062 -5.203125 4.15625 -5.234375 C 4.03125 -5.265625 3.890625 -5.28125 3.734375 -5.28125 C 3.171875 -5.28125 2.738281 -5.097656 2.4375 -4.734375 C 2.144531 -4.367188 2 -3.847656 2 -3.171875 L 2 0 L 1 0 L 1 -6.015625 L 2 -6.015625 L 2 -5.078125 C 2.195312 -5.441406 2.460938 -5.710938 2.796875 -5.890625 C 3.128906 -6.066406 3.535156 -6.15625 4.015625 -6.15625 C 4.085938 -6.15625 4.160156 -6.148438 4.234375 -6.140625 C 4.316406 -6.140625 4.410156 -6.128906 4.515625 -6.109375 Z M 4.515625 -5.09375 "
           id="path14" />
      </symbol>
      <symbol
         overflow="visible"
         id="glyph0-5">
        <path
           style="stroke:none;"
           d="M 1.03125 -6.015625 L 2.03125 -6.015625 L 2.03125 0 L 1.03125 0 Z M 1.03125 -8.359375 L 2.03125 -8.359375 L 2.03125 -7.109375 L 1.03125 -7.109375 Z M 1.03125 -8.359375 "
           id="path17" />
      </symbol>
      <symbol
         overflow="visible"
         id="glyph0-6">
        <path
           style="stroke:none;"
           d="M 5.71875 -4.859375 C 5.96875 -5.304688 6.265625 -5.632812 6.609375 -5.84375 C 6.953125 -6.050781 7.359375 -6.15625 7.828125 -6.15625 C 8.453125 -6.15625 8.929688 -5.9375 9.265625 -5.5 C 9.609375 -5.0625 9.78125 -4.4375 9.78125 -3.625 L 9.78125 0 L 8.78125 0 L 8.78125 -3.59375 C 8.78125 -4.175781 8.675781 -4.601562 8.46875 -4.875 C 8.269531 -5.15625 7.960938 -5.296875 7.546875 -5.296875 C 7.035156 -5.296875 6.628906 -5.125 6.328125 -4.78125 C 6.035156 -4.445312 5.890625 -3.988281 5.890625 -3.40625 L 5.890625 0 L 4.890625 0 L 4.890625 -3.59375 C 4.890625 -4.175781 4.785156 -4.601562 4.578125 -4.875 C 4.378906 -5.15625 4.066406 -5.296875 3.640625 -5.296875 C 3.140625 -5.296875 2.738281 -5.125 2.4375 -4.78125 C 2.144531 -4.445312 2 -3.988281 2 -3.40625 L 2 0 L 1 0 L 1 -6.015625 L 2 -6.015625 L 2 -5.078125 C 2.21875 -5.453125 2.484375 -5.722656 2.796875 -5.890625 C 3.117188 -6.066406 3.492188 -6.15625 3.921875 -6.15625 C 4.359375 -6.15625 4.726562 -6.046875 5.03125 -5.828125 C 5.34375 -5.609375 5.570312 -5.285156 5.71875 -4.859375 Z M 5.71875 -4.859375 "
           id="path20" />
      </symbol>
      <symbol
         overflow="visible"
         id="glyph0-7">
        <path
           style="stroke:none;"
           d="M 1.171875 -1.359375 L 2.3125 -1.359375 L 2.3125 0 L 1.171875 0 Z M 1.171875 -1.359375 "
           id="path23" />
      </symbol>
      <symbol
         overflow="visible"
         id="glyph0-8">
        <path
           style="stroke:none;"
           d="M 2 -0.90625 L 2 2.28125 L 1 2.28125 L 1 -6.015625 L 2 -6.015625 L 2 -5.109375 C 2.195312 -5.460938 2.453125 -5.722656 2.765625 -5.890625 C 3.085938 -6.066406 3.472656 -6.15625 3.921875 -6.15625 C 4.648438 -6.15625 5.238281 -5.863281 5.6875 -5.28125 C 6.144531 -4.707031 6.375 -3.945312 6.375 -3 C 6.375 -2.050781 6.144531 -1.285156 5.6875 -0.703125 C 5.238281 -0.128906 4.648438 0.15625 3.921875 0.15625 C 3.472656 0.15625 3.085938 0.0703125 2.765625 -0.09375 C 2.453125 -0.269531 2.195312 -0.539062 2 -0.90625 Z M 5.359375 -3 C 5.359375 -3.726562 5.207031 -4.296875 4.90625 -4.703125 C 4.601562 -5.117188 4.191406 -5.328125 3.671875 -5.328125 C 3.148438 -5.328125 2.738281 -5.117188 2.4375 -4.703125 C 2.144531 -4.296875 2 -3.726562 2 -3 C 2 -2.269531 2.144531 -1.695312 2.4375 -1.28125 C 2.738281 -0.875 3.148438 -0.671875 3.671875 -0.671875 C 4.191406 -0.671875 4.601562 -0.875 4.90625 -1.28125 C 5.207031 -1.695312 5.359375 -2.269531 5.359375 -3 Z M 5.359375 -3 "
           id="path26" />
      </symbol>
      <symbol
         overflow="visible"
         id="glyph0-9">
        <path
           style="stroke:none;"
           d="M 3.546875 0.5625 C 3.265625 1.28125 2.988281 1.742188 2.71875 1.953125 C 2.457031 2.171875 2.101562 2.28125 1.65625 2.28125 L 0.875 2.28125 L 0.875 1.46875 L 1.453125 1.46875 C 1.722656 1.46875 1.929688 1.398438 2.078125 1.265625 C 2.234375 1.140625 2.398438 0.835938 2.578125 0.359375 L 2.765625 -0.09375 L 0.328125 -6.015625 L 1.375 -6.015625 L 3.25 -1.3125 L 5.140625 -6.015625 L 6.1875 -6.015625 Z M 3.546875 0.5625 "
           id="path29" />
      </symbol>
      <symbol
         overflow="visible"
         id="glyph0-10">
        <path
           style="stroke:none;"
           d="M 0.359375 -8.015625 L 1.46875 -8.015625 L 3.140625 -1.234375 L 4.828125 -8.015625 L 6.046875 -8.015625 L 7.734375 -1.234375 L 9.421875 -8.015625 L 10.515625 -8.015625 L 8.5 0 L 7.140625 0 L 5.453125 -6.96875 L 3.734375 0 L 2.375 0 Z M 0.359375 -8.015625 "
           id="path32" />
      </symbol>
      <symbol
         overflow="visible"
         id="glyph0-11">
        <path
           style="stroke:none;"
           d="M 1.078125 -8.015625 L 2.171875 -8.015625 L 2.171875 0 L 1.078125 0 Z M 1.078125 -8.015625 "
           id="path35" />
      </symbol>
      <symbol
         overflow="visible"
         id="glyph0-12">
        <path
           style="stroke:none;"
           d="M 2.171875 -7.125 L 2.171875 -0.890625 L 3.46875 -0.890625 C 4.582031 -0.890625 5.394531 -1.140625 5.90625 -1.640625 C 6.414062 -2.140625 6.671875 -2.929688 6.671875 -4.015625 C 6.671875 -5.085938 6.414062 -5.875 5.90625 -6.375 C 5.394531 -6.875 4.582031 -7.125 3.46875 -7.125 Z M 1.078125 -8.015625 L 3.3125 -8.015625 C 4.863281 -8.015625 6.003906 -7.691406 6.734375 -7.046875 C 7.460938 -6.398438 7.828125 -5.390625 7.828125 -4.015625 C 7.828125 -2.628906 7.457031 -1.613281 6.71875 -0.96875 C 5.988281 -0.320312 4.851562 0 3.3125 0 L 1.078125 0 Z M 1.078125 -8.015625 "
           id="path38" />
      </symbol>
      <symbol
         overflow="visible"
         id="glyph0-13">
        <path
           style="stroke:none;"
           d="M -0.03125 -8.015625 L 6.75 -8.015625 L 6.75 -7.109375 L 3.90625 -7.109375 L 3.90625 0 L 2.8125 0 L 2.8125 -7.109375 L -0.03125 -7.109375 Z M -0.03125 -8.015625 "
           id="path41" />
      </symbol>
      <symbol
         overflow="visible"
         id="glyph0-14">
        <path
           style="stroke:none;"
           d="M 1.078125 -8.015625 L 2.171875 -8.015625 L 2.171875 -4.734375 L 6.109375 -4.734375 L 6.109375 -8.015625 L 7.1875 -8.015625 L 7.1875 0 L 6.109375 0 L 6.109375 -3.8125 L 2.171875 -3.8125 L 2.171875 0 L 1.078125 0 Z M 1.078125 -8.015625 "
           id="path44" />
      </symbol>
      <symbol
         overflow="visible"
         id="glyph0-15">
        <path
           style="stroke:none;"
           d=""
           id="path47" />
      </symbol>
      <symbol
         overflow="visible"
         id="glyph0-16">
        <path
           style="stroke:none;"
           d="M 0.53125 -3.203125 L 0.53125 -3.6875 L 2.640625 -5.796875 L 3.296875 -5.15625 L 2.046875 -3.90625 L 8.59375 -3.90625 L 8.59375 -2.984375 L 2.046875 -2.984375 L 3.296875 -1.734375 L 2.640625 -1.09375 Z M 0.53125 -3.203125 "
           id="path50" />
      </symbol>
      <symbol
         overflow="visible"
         id="glyph0-17">
        <path
           style="stroke:none;"
           d="M 3.5 -3.8125 C 2.976562 -3.8125 2.570312 -3.671875 2.28125 -3.390625 C 1.988281 -3.117188 1.84375 -2.738281 1.84375 -2.25 C 1.84375 -1.769531 1.988281 -1.390625 2.28125 -1.109375 C 2.570312 -0.835938 2.976562 -0.703125 3.5 -0.703125 C 4.007812 -0.703125 4.410156 -0.835938 4.703125 -1.109375 C 5.003906 -1.390625 5.15625 -1.769531 5.15625 -2.25 C 5.15625 -2.738281 5.007812 -3.117188 4.71875 -3.390625 C 4.425781 -3.671875 4.019531 -3.8125 3.5 -3.8125 Z M 2.40625 -4.265625 C 1.945312 -4.378906 1.585938 -4.59375 1.328125 -4.90625 C 1.066406 -5.226562 0.9375 -5.617188 0.9375 -6.078125 C 0.9375 -6.722656 1.160156 -7.234375 1.609375 -7.609375 C 2.066406 -7.984375 2.695312 -8.171875 3.5 -8.171875 C 4.289062 -8.171875 4.914062 -7.984375 5.375 -7.609375 C 5.832031 -7.234375 6.0625 -6.722656 6.0625 -6.078125 C 6.0625 -5.617188 5.929688 -5.226562 5.671875 -4.90625 C 5.410156 -4.59375 5.050781 -4.378906 4.59375 -4.265625 C 5.113281 -4.148438 5.519531 -3.914062 5.8125 -3.5625 C 6.101562 -3.207031 6.25 -2.769531 6.25 -2.25 C 6.25 -1.476562 6.007812 -0.882812 5.53125 -0.46875 C 5.0625 -0.0507812 4.382812 0.15625 3.5 0.15625 C 2.613281 0.15625 1.929688 -0.0507812 1.453125 -0.46875 C 0.984375 -0.882812 0.75 -1.476562 0.75 -2.25 C 0.75 -2.769531 0.894531 -3.207031 1.1875 -3.5625 C 1.476562 -3.914062 1.882812 -4.148438 2.40625 -4.265625 Z M 2.015625 -5.984375 C 2.015625 -5.566406 2.144531 -5.238281 2.40625 -5 C 2.664062 -4.769531 3.03125 -4.65625 3.5 -4.65625 C 3.957031 -4.65625 4.316406 -4.769531 4.578125 -5 C 4.847656 -5.238281 4.984375 -5.566406 4.984375 -5.984375 C 4.984375 -6.398438 4.847656 -6.722656 4.578125 -6.953125 C 4.316406 -7.191406 3.957031 -7.3125 3.5 -7.3125 C 3.03125 -7.3125 2.664062 -7.191406 2.40625 -6.953125 C 2.144531 -6.722656 2.015625 -6.398438 2.015625 -5.984375 Z M 2.015625 -5.984375 "
           id="path53" />
      </symbol>
      <symbol
         overflow="visible"
         id="glyph0-18">
        <path
           style="stroke:none;"
           d="M 3.5 -7.3125 C 2.9375 -7.3125 2.515625 -7.035156 2.234375 -6.484375 C 1.953125 -5.929688 1.8125 -5.101562 1.8125 -4 C 1.8125 -2.90625 1.953125 -2.082031 2.234375 -1.53125 C 2.515625 -0.976562 2.9375 -0.703125 3.5 -0.703125 C 4.0625 -0.703125 4.484375 -0.976562 4.765625 -1.53125 C 5.046875 -2.082031 5.1875 -2.90625 5.1875 -4 C 5.1875 -5.101562 5.046875 -5.929688 4.765625 -6.484375 C 4.484375 -7.035156 4.0625 -7.3125 3.5 -7.3125 Z M 3.5 -8.171875 C 4.394531 -8.171875 5.078125 -7.8125 5.546875 -7.09375 C 6.023438 -6.382812 6.265625 -5.351562 6.265625 -4 C 6.265625 -2.65625 6.023438 -1.625 5.546875 -0.90625 C 5.078125 -0.195312 4.394531 0.15625 3.5 0.15625 C 2.601562 0.15625 1.914062 -0.195312 1.4375 -0.90625 C 0.957031 -1.625 0.71875 -2.65625 0.71875 -4 C 0.71875 -5.351562 0.957031 -6.382812 1.4375 -7.09375 C 1.914062 -7.8125 2.601562 -8.171875 3.5 -8.171875 Z M 3.5 -8.171875 "
           id="path56" />
      </symbol>
      <symbol
         overflow="visible"
         id="glyph0-19">
        <path
           style="stroke:none;"
           d="M 5.359375 -3 C 5.359375 -3.726562 5.207031 -4.296875 4.90625 -4.703125 C 4.601562 -5.117188 4.191406 -5.328125 3.671875 -5.328125 C 3.148438 -5.328125 2.738281 -5.117188 2.4375 -4.703125 C 2.144531 -4.296875 2 -3.726562 2 -3 C 2 -2.269531 2.144531 -1.695312 2.4375 -1.28125 C 2.738281 -0.875 3.148438 -0.671875 3.671875 -0.671875 C 4.191406 -0.671875 4.601562 -0.875 4.90625 -1.28125 C 5.207031 -1.695312 5.359375 -2.269531 5.359375 -3 Z M 2 -5.109375 C 2.195312 -5.460938 2.453125 -5.722656 2.765625 -5.890625 C 3.085938 -6.066406 3.472656 -6.15625 3.921875 -6.15625 C 4.648438 -6.15625 5.238281 -5.863281 5.6875 -5.28125 C 6.144531 -4.707031 6.375 -3.945312 6.375 -3 C 6.375 -2.050781 6.144531 -1.285156 5.6875 -0.703125 C 5.238281 -0.128906 4.648438 0.15625 3.921875 0.15625 C 3.472656 0.15625 3.085938 0.0703125 2.765625 -0.09375 C 2.453125 -0.269531 2.195312 -0.539062 2 -0.90625 L 2 0 L 1 0 L 1 -8.359375 L 2 -8.359375 Z M 2 -5.109375 "
           id="path59" />
      </symbol>
      <symbol
         overflow="visible"
         id="glyph0-20">
        <path
           style="stroke:none;"
           d="M 5.359375 -5.78125 L 5.359375 -4.859375 C 5.085938 -5.015625 4.8125 -5.128906 4.53125 -5.203125 C 4.25 -5.285156 3.960938 -5.328125 3.671875 -5.328125 C 3.035156 -5.328125 2.539062 -5.125 2.1875 -4.71875 C 1.832031 -4.3125 1.65625 -3.738281 1.65625 -3 C 1.65625 -2.269531 1.832031 -1.703125 2.1875 -1.296875 C 2.539062 -0.890625 3.035156 -0.6875 3.671875 -0.6875 C 3.960938 -0.6875 4.25 -0.722656 4.53125 -0.796875 C 4.8125 -0.867188 5.085938 -0.984375 5.359375 -1.140625 L 5.359375 -0.234375 C 5.085938 -0.0976562 4.800781 0 4.5 0.0625 C 4.207031 0.125 3.894531 0.15625 3.5625 0.15625 C 2.65625 0.15625 1.9375 -0.125 1.40625 -0.6875 C 0.875 -1.257812 0.609375 -2.03125 0.609375 -3 C 0.609375 -3.976562 0.875 -4.75 1.40625 -5.3125 C 1.945312 -5.875 2.6875 -6.15625 3.625 -6.15625 C 3.9375 -6.15625 4.234375 -6.125 4.515625 -6.0625 C 4.804688 -6 5.085938 -5.90625 5.359375 -5.78125 Z M 5.359375 -5.78125 "
           id="path62" />
      </symbol>
      <symbol
         overflow="visible"
         id="glyph0-21">
        <path
           style="stroke:none;"
           d="M 1 -8.359375 L 2 -8.359375 L 2 -3.421875 L 4.9375 -6.015625 L 6.203125 -6.015625 L 3.015625 -3.203125 L 6.34375 0 L 5.046875 0 L 2 -2.9375 L 2 0 L 1 0 Z M 1 -8.359375 "
           id="path65" />
      </symbol>
      <symbol
         overflow="visible"
         id="glyph0-22">
        <path
           style="stroke:none;"
           d="M 5 -3.078125 C 5 -3.796875 4.847656 -4.347656 4.546875 -4.734375 C 4.253906 -5.128906 3.84375 -5.328125 3.3125 -5.328125 C 2.78125 -5.328125 2.363281 -5.128906 2.0625 -4.734375 C 1.769531 -4.347656 1.625 -3.796875 1.625 -3.078125 C 1.625 -2.367188 1.769531 -1.816406 2.0625 -1.421875 C 2.363281 -1.023438 2.78125 -0.828125 3.3125 -0.828125 C 3.84375 -0.828125 4.253906 -1.023438 4.546875 -1.421875 C 4.847656 -1.816406 5 -2.367188 5 -3.078125 Z M 5.984375 -0.75 C 5.984375 0.28125 5.753906 1.039062 5.296875 1.53125 C 4.847656 2.03125 4.15625 2.28125 3.21875 2.28125 C 2.863281 2.28125 2.53125 2.253906 2.21875 2.203125 C 1.914062 2.148438 1.617188 2.070312 1.328125 1.96875 L 1.328125 1.015625 C 1.617188 1.171875 1.90625 1.285156 2.1875 1.359375 C 2.46875 1.429688 2.757812 1.46875 3.0625 1.46875 C 3.707031 1.46875 4.191406 1.296875 4.515625 0.953125 C 4.835938 0.617188 5 0.113281 5 -0.5625 L 5 -1.0625 C 4.789062 -0.707031 4.523438 -0.441406 4.203125 -0.265625 C 3.890625 -0.0859375 3.507812 0 3.0625 0 C 2.320312 0 1.726562 -0.28125 1.28125 -0.84375 C 0.832031 -1.40625 0.609375 -2.148438 0.609375 -3.078125 C 0.609375 -4.003906 0.832031 -4.75 1.28125 -5.3125 C 1.726562 -5.875 2.320312 -6.15625 3.0625 -6.15625 C 3.507812 -6.15625 3.890625 -6.066406 4.203125 -5.890625 C 4.523438 -5.722656 4.789062 -5.460938 5 -5.109375 L 5 -6.015625 L 5.984375 -6.015625 Z M 5.984375 -0.75 "
           id="path68" />
      </symbol>
      <symbol
         overflow="visible"
         id="glyph0-23">
        <path
           style="stroke:none;"
           d="M 3.375 -5.328125 C 2.84375 -5.328125 2.421875 -5.117188 2.109375 -4.703125 C 1.804688 -4.285156 1.65625 -3.71875 1.65625 -3 C 1.65625 -2.28125 1.804688 -1.710938 2.109375 -1.296875 C 2.410156 -0.890625 2.832031 -0.6875 3.375 -0.6875 C 3.894531 -0.6875 4.304688 -0.890625 4.609375 -1.296875 C 4.921875 -1.710938 5.078125 -2.28125 5.078125 -3 C 5.078125 -3.71875 4.921875 -4.285156 4.609375 -4.703125 C 4.304688 -5.117188 3.894531 -5.328125 3.375 -5.328125 Z M 3.375 -6.15625 C 4.226562 -6.15625 4.898438 -5.875 5.390625 -5.3125 C 5.878906 -4.757812 6.125 -3.988281 6.125 -3 C 6.125 -2.019531 5.878906 -1.25 5.390625 -0.6875 C 4.898438 -0.125 4.226562 0.15625 3.375 0.15625 C 2.507812 0.15625 1.832031 -0.125 1.34375 -0.6875 C 0.851562 -1.25 0.609375 -2.019531 0.609375 -3 C 0.609375 -3.988281 0.851562 -4.757812 1.34375 -5.3125 C 1.832031 -5.875 2.507812 -6.15625 3.375 -6.15625 Z M 3.375 -6.15625 "
           id="path71" />
      </symbol>
      <symbol
         overflow="visible"
         id="glyph0-24">
        <path
           style="stroke:none;"
           d="M 6.03125 -3.625 L 6.03125 0 L 5.046875 0 L 5.046875 -3.59375 C 5.046875 -4.164062 4.9375 -4.59375 4.71875 -4.875 C 4.5 -5.15625 4.164062 -5.296875 3.71875 -5.296875 C 3.1875 -5.296875 2.765625 -5.125 2.453125 -4.78125 C 2.148438 -4.445312 2 -3.988281 2 -3.40625 L 2 0 L 1 0 L 1 -6.015625 L 2 -6.015625 L 2 -5.078125 C 2.226562 -5.441406 2.503906 -5.710938 2.828125 -5.890625 C 3.148438 -6.066406 3.519531 -6.15625 3.9375 -6.15625 C 4.625 -6.15625 5.144531 -5.941406 5.5 -5.515625 C 5.851562 -5.085938 6.03125 -4.457031 6.03125 -3.625 Z M 6.03125 -3.625 "
           id="path74" />
      </symbol>
      <symbol
         overflow="visible"
         id="glyph0-25">
        <path
           style="stroke:none;"
           d="M 5 -5.109375 L 5 -8.359375 L 5.984375 -8.359375 L 5.984375 0 L 5 0 L 5 -0.90625 C 4.789062 -0.539062 4.523438 -0.269531 4.203125 -0.09375 C 3.890625 0.0703125 3.507812 0.15625 3.0625 0.15625 C 2.34375 0.15625 1.753906 -0.128906 1.296875 -0.703125 C 0.835938 -1.285156 0.609375 -2.050781 0.609375 -3 C 0.609375 -3.945312 0.835938 -4.707031 1.296875 -5.28125 C 1.753906 -5.863281 2.34375 -6.15625 3.0625 -6.15625 C 3.507812 -6.15625 3.890625 -6.066406 4.203125 -5.890625 C 4.523438 -5.722656 4.789062 -5.460938 5 -5.109375 Z M 1.625 -3 C 1.625 -2.269531 1.773438 -1.695312 2.078125 -1.28125 C 2.378906 -0.875 2.789062 -0.671875 3.3125 -0.671875 C 3.832031 -0.671875 4.242188 -0.875 4.546875 -1.28125 C 4.847656 -1.695312 5 -2.269531 5 -3 C 5 -3.726562 4.847656 -4.296875 4.546875 -4.703125 C 4.242188 -5.117188 3.832031 -5.328125 3.3125 -5.328125 C 2.789062 -5.328125 2.378906 -5.117188 2.078125 -4.703125 C 1.773438 -4.296875 1.625 -3.726562 1.625 -3 Z M 1.625 -3 "
           id="path77" />
      </symbol>
      <symbol
         overflow="visible"
         id="glyph0-26">
        <path
           style="stroke:none;"
           d="M 5.609375 1.828125 L 5.609375 2.59375 L -0.109375 2.59375 L -0.109375 1.828125 Z M 5.609375 1.828125 "
           id="path80" />
      </symbol>
      <symbol
         overflow="visible"
         id="glyph0-27">
        <path
           style="stroke:none;"
           d="M 1.03125 -8.359375 L 2.03125 -8.359375 L 2.03125 0 L 1.03125 0 Z M 1.03125 -8.359375 "
           id="path83" />
      </symbol>
      <symbol
         overflow="visible"
         id="glyph0-28">
        <path
           style="stroke:none;"
           d="M 1.078125 -8.015625 L 6.15625 -8.015625 L 6.15625 -7.109375 L 2.171875 -7.109375 L 2.171875 -4.734375 L 5.984375 -4.734375 L 5.984375 -3.8125 L 2.171875 -3.8125 L 2.171875 -0.90625 L 6.25 -0.90625 L 6.25 0 L 1.078125 0 Z M 1.078125 -8.015625 "
           id="path86" />
      </symbol>
      <symbol
         overflow="visible"
         id="glyph0-29">
        <path
           style="stroke:none;"
           d="M 6.546875 -1.140625 L 6.546875 -3.296875 L 4.78125 -3.296875 L 4.78125 -4.1875 L 7.625 -4.1875 L 7.625 -0.75 C 7.207031 -0.445312 6.742188 -0.21875 6.234375 -0.0625 C 5.734375 0.0820312 5.195312 0.15625 4.625 0.15625 C 3.363281 0.15625 2.378906 -0.207031 1.671875 -0.9375 C 0.972656 -1.675781 0.625 -2.695312 0.625 -4 C 0.625 -5.3125 0.972656 -6.332031 1.671875 -7.0625 C 2.378906 -7.800781 3.363281 -8.171875 4.625 -8.171875 C 5.144531 -8.171875 5.640625 -8.101562 6.109375 -7.96875 C 6.578125 -7.84375 7.007812 -7.65625 7.40625 -7.40625 L 7.40625 -6.25 C 7.007812 -6.582031 6.582031 -6.832031 6.125 -7 C 5.675781 -7.175781 5.203125 -7.265625 4.703125 -7.265625 C 3.722656 -7.265625 2.988281 -6.988281 2.5 -6.4375 C 2.007812 -5.894531 1.765625 -5.082031 1.765625 -4 C 1.765625 -2.914062 2.007812 -2.097656 2.5 -1.546875 C 2.988281 -1.003906 3.722656 -0.734375 4.703125 -0.734375 C 5.085938 -0.734375 5.429688 -0.765625 5.734375 -0.828125 C 6.035156 -0.898438 6.304688 -1.003906 6.546875 -1.140625 Z M 6.546875 -1.140625 "
           id="path89" />
      </symbol>
      <symbol
         overflow="visible"
         id="glyph0-30">
        <path
           style="stroke:none;"
           d="M 3.625 -4.4375 C 3.144531 -4.4375 2.757812 -4.269531 2.46875 -3.9375 C 2.1875 -3.601562 2.046875 -3.148438 2.046875 -2.578125 C 2.046875 -1.992188 2.1875 -1.535156 2.46875 -1.203125 C 2.757812 -0.867188 3.144531 -0.703125 3.625 -0.703125 C 4.113281 -0.703125 4.5 -0.867188 4.78125 -1.203125 C 5.070312 -1.535156 5.21875 -1.992188 5.21875 -2.578125 C 5.21875 -3.148438 5.070312 -3.601562 4.78125 -3.9375 C 4.5 -4.269531 4.113281 -4.4375 3.625 -4.4375 Z M 5.78125 -7.84375 L 5.78125 -6.859375 C 5.507812 -6.984375 5.234375 -7.078125 4.953125 -7.140625 C 4.679688 -7.210938 4.410156 -7.25 4.140625 -7.25 C 3.421875 -7.25 2.867188 -7.003906 2.484375 -6.515625 C 2.109375 -6.035156 1.894531 -5.304688 1.84375 -4.328125 C 2.0625 -4.640625 2.328125 -4.878906 2.640625 -5.046875 C 2.960938 -5.210938 3.316406 -5.296875 3.703125 -5.296875 C 4.503906 -5.296875 5.140625 -5.050781 5.609375 -4.5625 C 6.078125 -4.070312 6.3125 -3.410156 6.3125 -2.578125 C 6.3125 -1.753906 6.066406 -1.09375 5.578125 -0.59375 C 5.085938 -0.09375 4.4375 0.15625 3.625 0.15625 C 2.695312 0.15625 1.988281 -0.195312 1.5 -0.90625 C 1.007812 -1.625 0.765625 -2.65625 0.765625 -4 C 0.765625 -5.269531 1.066406 -6.28125 1.671875 -7.03125 C 2.273438 -7.789062 3.082031 -8.171875 4.09375 -8.171875 C 4.363281 -8.171875 4.632812 -8.140625 4.90625 -8.078125 C 5.1875 -8.023438 5.476562 -7.945312 5.78125 -7.84375 Z M 5.78125 -7.84375 "
           id="path92" />
      </symbol>
      <symbol
         overflow="visible"
         id="glyph0-31">
        <path
           style="stroke:none;"
           d="M 6.1875 -3.25 L 6.1875 -2.765625 L 1.640625 -2.765625 C 1.679688 -2.085938 1.882812 -1.570312 2.25 -1.21875 C 2.613281 -0.863281 3.125 -0.6875 3.78125 -0.6875 C 4.164062 -0.6875 4.535156 -0.734375 4.890625 -0.828125 C 5.242188 -0.921875 5.597656 -1.054688 5.953125 -1.234375 L 5.953125 -0.3125 C 5.597656 -0.15625 5.234375 -0.0390625 4.859375 0.03125 C 4.484375 0.113281 4.109375 0.15625 3.734375 0.15625 C 2.765625 0.15625 2 -0.117188 1.4375 -0.671875 C 0.882812 -1.234375 0.609375 -1.992188 0.609375 -2.953125 C 0.609375 -3.929688 0.875 -4.707031 1.40625 -5.28125 C 1.9375 -5.863281 2.65625 -6.15625 3.5625 -6.15625 C 4.363281 -6.15625 5 -5.894531 5.46875 -5.375 C 5.945312 -4.851562 6.1875 -4.144531 6.1875 -3.25 Z M 5.1875 -3.546875 C 5.1875 -4.085938 5.035156 -4.519531 4.734375 -4.84375 C 4.441406 -5.164062 4.050781 -5.328125 3.5625 -5.328125 C 3.007812 -5.328125 2.566406 -5.171875 2.234375 -4.859375 C 1.910156 -4.546875 1.722656 -4.109375 1.671875 -3.546875 Z M 5.1875 -3.546875 "
           id="path95" />
      </symbol>
      <symbol
         overflow="visible"
         id="glyph0-32">
        <path
           style="stroke:none;"
           d="M 5.890625 -6.015625 L 5.890625 0 L 4.90625 0 L 4.90625 -5.25 L 2.1875 -5.25 L 2.1875 0 L 1.203125 0 L 1.203125 -5.25 L 0.25 -5.25 L 0.25 -6.015625 L 1.203125 -6.015625 L 1.203125 -6.4375 C 1.203125 -7.09375 1.351562 -7.578125 1.65625 -7.890625 C 1.96875 -8.203125 2.445312 -8.359375 3.09375 -8.359375 L 4.078125 -8.359375 L 4.078125 -7.53125 L 3.140625 -7.53125 C 2.785156 -7.53125 2.535156 -7.457031 2.390625 -7.3125 C 2.253906 -7.175781 2.1875 -6.921875 2.1875 -6.546875 L 2.1875 -6.015625 Z M 4.90625 -8.34375 L 5.890625 -8.34375 L 5.890625 -7.09375 L 4.90625 -7.09375 Z M 4.90625 -8.34375 "
           id="path98" />
      </symbol>
      <symbol
         overflow="visible"
         id="glyph0-33">
        <path
           style="stroke:none;"
           d="M 0.46875 -6.015625 L 1.453125 -6.015625 L 2.6875 -1.328125 L 3.921875 -6.015625 L 5.078125 -6.015625 L 6.3125 -1.328125 L 7.546875 -6.015625 L 8.53125 -6.015625 L 6.96875 0 L 5.796875 0 L 4.5 -4.9375 L 3.203125 0 L 2.03125 0 Z M 0.46875 -6.015625 "
           id="path101" />
      </symbol>
      <symbol
         overflow="visible"
         id="glyph0-34">
        <path
           style="stroke:none;"
           d="M 5.890625 -7.75 L 5.890625 -6.703125 C 5.472656 -6.898438 5.082031 -7.046875 4.71875 -7.140625 C 4.351562 -7.234375 4 -7.28125 3.65625 -7.28125 C 3.070312 -7.28125 2.617188 -7.164062 2.296875 -6.9375 C 1.972656 -6.707031 1.8125 -6.382812 1.8125 -5.96875 C 1.8125 -5.613281 1.914062 -5.34375 2.125 -5.15625 C 2.34375 -4.976562 2.75 -4.832031 3.34375 -4.71875 L 4 -4.59375 C 4.8125 -4.4375 5.410156 -4.160156 5.796875 -3.765625 C 6.179688 -3.378906 6.375 -2.863281 6.375 -2.21875 C 6.375 -1.4375 6.113281 -0.84375 5.59375 -0.4375 C 5.070312 -0.0390625 4.304688 0.15625 3.296875 0.15625 C 2.921875 0.15625 2.515625 0.109375 2.078125 0.015625 C 1.648438 -0.0664062 1.207031 -0.191406 0.75 -0.359375 L 0.75 -1.46875 C 1.195312 -1.21875 1.628906 -1.03125 2.046875 -0.90625 C 2.472656 -0.78125 2.890625 -0.71875 3.296875 -0.71875 C 3.921875 -0.71875 4.398438 -0.835938 4.734375 -1.078125 C 5.066406 -1.328125 5.234375 -1.675781 5.234375 -2.125 C 5.234375 -2.519531 5.113281 -2.828125 4.875 -3.046875 C 4.632812 -3.273438 4.238281 -3.445312 3.6875 -3.5625 L 3.03125 -3.6875 C 2.21875 -3.84375 1.628906 -4.09375 1.265625 -4.4375 C 0.898438 -4.78125 0.71875 -5.257812 0.71875 -5.875 C 0.71875 -6.582031 0.96875 -7.140625 1.46875 -7.546875 C 1.96875 -7.960938 2.660156 -8.171875 3.546875 -8.171875 C 3.921875 -8.171875 4.300781 -8.132812 4.6875 -8.0625 C 5.082031 -7.988281 5.484375 -7.882812 5.890625 -7.75 Z M 5.890625 -7.75 "
           id="path104" />
      </symbol>
      <symbol
         overflow="visible"
         id="glyph0-35">
        <path
           style="stroke:none;"
           d="M 2.015625 -7.71875 L 2.015625 -6.015625 L 4.046875 -6.015625 L 4.046875 -5.25 L 2.015625 -5.25 L 2.015625 -1.984375 C 2.015625 -1.492188 2.082031 -1.175781 2.21875 -1.03125 C 2.351562 -0.894531 2.625 -0.828125 3.03125 -0.828125 L 4.046875 -0.828125 L 4.046875 0 L 3.03125 0 C 2.269531 0 1.742188 -0.140625 1.453125 -0.421875 C 1.160156 -0.710938 1.015625 -1.234375 1.015625 -1.984375 L 1.015625 -5.25 L 0.296875 -5.25 L 0.296875 -6.015625 L 1.015625 -6.015625 L 1.015625 -7.71875 Z M 2.015625 -7.71875 "
           id="path107" />
      </symbol>
      <symbol
         overflow="visible"
         id="glyph0-36">
        <path
           style="stroke:none;"
           d="M 2.171875 -7.125 L 2.171875 -4.109375 L 3.53125 -4.109375 C 4.03125 -4.109375 4.414062 -4.238281 4.6875 -4.5 C 4.96875 -4.769531 5.109375 -5.144531 5.109375 -5.625 C 5.109375 -6.101562 4.96875 -6.472656 4.6875 -6.734375 C 4.414062 -6.992188 4.03125 -7.125 3.53125 -7.125 Z M 1.078125 -8.015625 L 3.53125 -8.015625 C 4.425781 -8.015625 5.101562 -7.8125 5.5625 -7.40625 C 6.019531 -7 6.25 -6.40625 6.25 -5.625 C 6.25 -4.832031 6.019531 -4.234375 5.5625 -3.828125 C 5.101562 -3.421875 4.425781 -3.21875 3.53125 -3.21875 L 2.171875 -3.21875 L 2.171875 0 L 1.078125 0 Z M 1.078125 -8.015625 "
           id="path110" />
      </symbol>
      <symbol
         overflow="visible"
         id="glyph0-37">
        <path
           style="stroke:none;"
           d="M 0.625 -8.015625 L 6.921875 -8.015625 L 6.921875 -7.1875 L 1.84375 -0.90625 L 7.046875 -0.90625 L 7.046875 0 L 0.5 0 L 0.5 -0.828125 L 5.5625 -7.109375 L 0.625 -7.109375 Z M 0.625 -8.015625 "
           id="path113" />
      </symbol>
      <symbol
         overflow="visible"
         id="glyph0-38">
        <path
           style="stroke:none;"
           d="M 4.875 -5.84375 L 4.875 -4.90625 C 4.59375 -5.050781 4.300781 -5.15625 4 -5.21875 C 3.695312 -5.289062 3.382812 -5.328125 3.0625 -5.328125 C 2.570312 -5.328125 2.203125 -5.25 1.953125 -5.09375 C 1.710938 -4.945312 1.59375 -4.726562 1.59375 -4.4375 C 1.59375 -4.207031 1.679688 -4.023438 1.859375 -3.890625 C 2.035156 -3.765625 2.390625 -3.640625 2.921875 -3.515625 L 3.25 -3.4375 C 3.957031 -3.289062 4.457031 -3.078125 4.75 -2.796875 C 5.039062 -2.523438 5.1875 -2.144531 5.1875 -1.65625 C 5.1875 -1.101562 4.96875 -0.660156 4.53125 -0.328125 C 4.09375 -0.00390625 3.484375 0.15625 2.703125 0.15625 C 2.378906 0.15625 2.039062 0.125 1.6875 0.0625 C 1.34375 0 0.976562 -0.09375 0.59375 -0.21875 L 0.59375 -1.234375 C 0.957031 -1.046875 1.316406 -0.90625 1.671875 -0.8125 C 2.023438 -0.71875 2.378906 -0.671875 2.734375 -0.671875 C 3.191406 -0.671875 3.546875 -0.75 3.796875 -0.90625 C 4.046875 -1.070312 4.171875 -1.296875 4.171875 -1.578125 C 4.171875 -1.847656 4.082031 -2.054688 3.90625 -2.203125 C 3.726562 -2.347656 3.332031 -2.484375 2.71875 -2.609375 L 2.375 -2.703125 C 1.757812 -2.828125 1.316406 -3.019531 1.046875 -3.28125 C 0.773438 -3.550781 0.640625 -3.921875 0.640625 -4.390625 C 0.640625 -4.953125 0.835938 -5.382812 1.234375 -5.6875 C 1.640625 -6 2.210938 -6.15625 2.953125 -6.15625 C 3.316406 -6.15625 3.660156 -6.128906 3.984375 -6.078125 C 4.304688 -6.023438 4.601562 -5.945312 4.875 -5.84375 Z M 4.875 -5.84375 "
           id="path116" />
      </symbol>
      <symbol
         overflow="visible"
         id="glyph0-39">
        <path
           style="stroke:none;"
           d="M 1.078125 -8.015625 L 5.6875 -8.015625 L 5.6875 -7.109375 L 2.171875 -7.109375 L 2.171875 -4.75 L 5.34375 -4.75 L 5.34375 -3.828125 L 2.171875 -3.828125 L 2.171875 0 L 1.078125 0 Z M 1.078125 -8.015625 "
           id="path119" />
      </symbol>
      <symbol
         overflow="visible"
         id="glyph0-40">
        <path
           style="stroke:none;"
           d="M 3.375 -5.328125 C 2.84375 -5.328125 2.421875 -5.117188 2.109375 -4.703125 C 1.804688 -4.285156 1.65625 -3.71875 1.65625 -3 C 1.65625 -2.28125 1.804688 -1.710938 2.109375 -1.296875 C 2.410156 -0.890625 2.832031 -0.6875 3.375 -0.6875 C 3.894531 -0.6875 4.304688 -0.890625 4.609375 -1.296875 C 4.921875 -1.710938 5.078125 -2.28125 5.078125 -3 C 5.078125 -3.71875 4.921875 -4.285156 4.609375 -4.703125 C 4.304688 -5.117188 3.894531 -5.328125 3.375 -5.328125 Z M 3.375 -6.15625 C 4.226562 -6.15625 4.898438 -5.875 5.390625 -5.3125 C 5.878906 -4.757812 6.125 -3.988281 6.125 -3 C 6.125 -2.019531 5.878906 -1.25 5.390625 -0.6875 C 4.898438 -0.125 4.226562 0.15625 3.375 0.15625 C 2.507812 0.15625 1.832031 -0.125 1.34375 -0.6875 C 0.851562 -1.25 0.609375 -2.019531 0.609375 -3 C 0.609375 -3.988281 0.851562 -4.757812 1.34375 -5.3125 C 1.832031 -5.875 2.507812 -6.15625 3.375 -6.15625 Z M 4.25 -8.34375 L 5.34375 -8.34375 L 5.34375 -7.25 L 4.25 -7.25 Z M 2.15625 -8.34375 L 3.25 -8.34375 L 3.25 -7.25 L 2.15625 -7.25 Z M 2.15625 -8.34375 "
           id="path122" />
      </symbol>
      <symbol
         overflow="visible"
         id="glyph0-41">
        <path
           style="stroke:none;"
           d="M 7.71875 -5.90625 L 5.265625 -3.4375 L 7.71875 -0.984375 L 7.078125 -0.34375 L 4.609375 -2.796875 L 2.140625 -0.34375 L 1.515625 -0.984375 L 3.953125 -3.4375 L 1.515625 -5.90625 L 2.140625 -6.5625 L 4.609375 -4.09375 L 7.078125 -6.5625 Z M 7.71875 -5.90625 "
           id="path125" />
      </symbol>
      <symbol
         overflow="visible"
         id="glyph0-42">
        <path
           style="stroke:none;"
           d="M 4.875 -3.765625 C 5.113281 -3.679688 5.34375 -3.507812 5.5625 -3.25 C 5.78125 -3 6 -2.644531 6.21875 -2.1875 L 7.328125 0 L 6.15625 0 L 5.140625 -2.0625 C 4.867188 -2.59375 4.609375 -2.945312 4.359375 -3.125 C 4.109375 -3.300781 3.769531 -3.390625 3.34375 -3.390625 L 2.171875 -3.390625 L 2.171875 0 L 1.078125 0 L 1.078125 -8.015625 L 3.53125 -8.015625 C 4.445312 -8.015625 5.128906 -7.820312 5.578125 -7.4375 C 6.023438 -7.0625 6.25 -6.484375 6.25 -5.703125 C 6.25 -5.203125 6.128906 -4.785156 5.890625 -4.453125 C 5.660156 -4.117188 5.320312 -3.890625 4.875 -3.765625 Z M 2.171875 -7.125 L 2.171875 -4.28125 L 3.53125 -4.28125 C 4.050781 -4.28125 4.441406 -4.398438 4.703125 -4.640625 C 4.972656 -4.878906 5.109375 -5.234375 5.109375 -5.703125 C 5.109375 -6.171875 4.972656 -6.523438 4.703125 -6.765625 C 4.441406 -7.003906 4.050781 -7.125 3.53125 -7.125 Z M 2.171875 -7.125 "
           id="path128" />
      </symbol>
      <symbol
         overflow="visible"
         id="glyph0-43">
        <path
           style="stroke:none;"
           d="M 4.078125 -8.359375 L 4.078125 -7.53125 L 3.140625 -7.53125 C 2.785156 -7.53125 2.535156 -7.457031 2.390625 -7.3125 C 2.253906 -7.175781 2.1875 -6.921875 2.1875 -6.546875 L 2.1875 -6.015625 L 3.8125 -6.015625 L 3.8125 -5.25 L 2.1875 -5.25 L 2.1875 0 L 1.203125 0 L 1.203125 -5.25 L 0.25 -5.25 L 0.25 -6.015625 L 1.203125 -6.015625 L 1.203125 -6.4375 C 1.203125 -7.101562 1.351562 -7.585938 1.65625 -7.890625 C 1.96875 -8.203125 2.460938 -8.359375 3.140625 -8.359375 Z M 4.078125 -8.359375 "
           id="path131" />
      </symbol>
      <symbol
         overflow="visible"
         id="glyph0-44">
        <path
           style="stroke:none;"
           d="M 0.9375 -2.375 L 0.9375 -6.015625 L 1.921875 -6.015625 L 1.921875 -2.40625 C 1.921875 -1.84375 2.03125 -1.414062 2.25 -1.125 C 2.476562 -0.84375 2.8125 -0.703125 3.25 -0.703125 C 3.789062 -0.703125 4.210938 -0.867188 4.515625 -1.203125 C 4.828125 -1.546875 4.984375 -2.015625 4.984375 -2.609375 L 4.984375 -6.015625 L 5.96875 -6.015625 L 5.96875 0 L 4.984375 0 L 4.984375 -0.921875 C 4.742188 -0.554688 4.460938 -0.285156 4.140625 -0.109375 C 3.828125 0.0664062 3.460938 0.15625 3.046875 0.15625 C 2.359375 0.15625 1.832031 -0.0546875 1.46875 -0.484375 C 1.113281 -0.921875 0.9375 -1.550781 0.9375 -2.375 Z M 3.421875 -6.15625 Z M 4.25 -8.34375 L 5.34375 -8.34375 L 5.34375 -7.25 L 4.25 -7.25 Z M 2.15625 -8.34375 L 3.25 -8.34375 L 3.25 -7.25 L 2.15625 -7.25 Z M 2.15625 -8.34375 "
           id="path134" />
      </symbol>
      <symbol
         overflow="visible"
         id="glyph0-45">
        <path
           style="stroke:none;"
           d="M 3.140625 0 L 0.09375 -8.015625 L 1.21875 -8.015625 L 3.765625 -1.265625 L 6.3125 -8.015625 L 7.4375 -8.015625 L 4.375 0 Z M 3.140625 0 "
           id="path137" />
      </symbol>
      <symbol
         overflow="visible"
         id="glyph0-46">
        <path
           style="stroke:none;"
           d="M 3.765625 -6.953125 L 2.28125 -2.953125 L 5.234375 -2.953125 Z M 3.140625 -8.015625 L 4.375 -8.015625 L 7.4375 0 L 6.3125 0 L 5.578125 -2.0625 L 1.953125 -2.0625 L 1.234375 0 L 0.09375 0 Z M 3.140625 -8.015625 "
           id="path140" />
      </symbol>
      <symbol
         overflow="visible"
         id="glyph0-47">
        <path
           style="stroke:none;"
           d="M 0.328125 -6.015625 L 1.375 -6.015625 L 3.25 -0.96875 L 5.140625 -6.015625 L 6.1875 -6.015625 L 3.921875 0 L 2.578125 0 Z M 0.328125 -6.015625 "
           id="path143" />
      </symbol>
    </g>
  </defs>
  <path
     inkscape:connector-curvature="0"
     id="path152"
     d="M 231.10156,1.1015625 V 191.10156 H 1.1015625 v 40 H 511.10156 V 1.1015625 Z m 0,0"
     style="fill:#d7e3e3;fill-opacity:1;fill-rule:evenodd;stroke:#000000;stroke-width:1;stroke-linecap:butt;stroke-linejoin:miter;stroke-miterlimit:10;stroke-opacity:1" />
  <path
     inkscape:connector-curvature="0"
     id="path154"
     d="m 211.10156,201.10156 h 40 v -150 h 33.66798"
     style="fill:none;stroke:#000000;stroke-width:1;stroke-linecap:butt;stroke-linejoin:miter;stroke-miterlimit:10;stroke-dasharray:2, 2;stroke-opacity:1" />
  <path
     inkscape:connector-curvature="0"
     id="path156"
     d="m 290.76954,51.10156 -8,4 2,-4 -2,-4 z m 0,0"
     style="fill:#000000;fill-opacity:1;fill-rule:evenodd;stroke:#000000;stroke-width:1;stroke-linecap:butt;stroke-linejoin:miter;stroke-miterlimit:10;stroke-opacity:1" />
  <path
     inkscape:connector-curvature="0"
     id="path158"
     d="m 41.10156,1.1015625 c -5.52344,0 -10,4.4765575 -10,9.9999975 0,5.51954 4.47656,10 10,10 h 140 c 5.51954,0 10,-4.48046 10,-10 0,-5.52344 -4.48046,-9.9999975 -10,-9.9999975 z m 0,0"
     style="fill:#8fcaf8;fill-opacity:1;fill-rule:evenodd;stroke:#000000;stroke-width:1;stroke-linecap:butt;stroke-linejoin:round;stroke-miterlimit:10;stroke-opacity:1" />
  <g
     id="g182"
     style="fill:#000000;fill-opacity:1">
    <use
       height="100%"
       width="100%"
       id="use160"
       y="14.869412"
       x="75.339844"
       xlink:href="#glyph0-1" />
    <use
       height="100%"
       width="100%"
       id="use162"
       y="14.869412"
       x="82.080566"
       xlink:href="#glyph0-2" />
    <use
       height="100%"
       width="100%"
       id="use164"
       y="14.869412"
       x="89.062988"
       xlink:href="#glyph0-3" />
    <use
       height="100%"
       width="100%"
       id="use166"
       y="14.869412"
       x="96.034561"
       xlink:href="#glyph0-1" />
    <use
       height="100%"
       width="100%"
       id="use168"
       y="14.869412"
       x="102.77528"
       xlink:href="#glyph0-4" />
    <use
       height="100%"
       width="100%"
       id="use170"
       y="14.869412"
       x="107.29785"
       xlink:href="#glyph0-5" />
    <use
       height="100%"
       width="100%"
       id="use172"
       y="14.869412"
       x="110.35395"
       xlink:href="#glyph0-3" />
    <use
       height="100%"
       width="100%"
       id="use174"
       y="14.869412"
       x="117.32552"
       xlink:href="#glyph0-6" />
    <use
       height="100%"
       width="100%"
       id="use176"
       y="14.869412"
       x="128.04085"
       xlink:href="#glyph0-7" />
    <use
       height="100%"
       width="100%"
       id="use178"
       y="14.869412"
       x="131.53749"
       xlink:href="#glyph0-8" />
    <use
       height="100%"
       width="100%"
       id="use180"
       y="14.869412"
       x="138.51991"
       xlink:href="#glyph0-9" />
  </g>
  <path
     inkscape:connector-curvature="0"
     id="path184"
     d="m 111.10156,21.10156 v 13.6836"
     style="fill:none;stroke:#000000;stroke-width:1;stroke-linecap:butt;stroke-linejoin:round;stroke-miterlimit:10;stroke-opacity:1" />
  <path
     inkscape:connector-curvature="0"
     id="path186"
     d="m 111.10156,40.78516 -4,-8 4,2 4,-2 z m 0,0"
     style="fill:#000000;fill-opacity:1;fill-rule:evenodd;stroke:#000000;stroke-width:1;stroke-linecap:butt;stroke-linejoin:miter;stroke-miterlimit:10;stroke-opacity:1" />
  <path
     inkscape:connector-curvature="0"
     id="path188"
     d="M 111.10156,61.19922 V 74.77734"
     style="fill:none;stroke:#000000;stroke-width:1;stroke-linecap:butt;stroke-linejoin:miter;stroke-miterlimit:10;stroke-opacity:1" />
  <path
     inkscape:connector-curvature="0"
     id="path190"
     d="m 111.10156,80.77734 -4,-8 4,2 4,-2 z m 0,0"
     style="fill:#000000;fill-opacity:1;fill-rule:evenodd;stroke:#000000;stroke-width:1;stroke-linecap:butt;stroke-linejoin:miter;stroke-miterlimit:10;stroke-opacity:1" />
  <path
     inkscape:connector-curvature="0"
     id="path192"
     d="m 111.10156,101.19922 v 13.57812"
     style="fill:none;stroke:#000000;stroke-width:1;stroke-linecap:butt;stroke-linejoin:miter;stroke-miterlimit:10;stroke-opacity:1" />
  <path
     inkscape:connector-curvature="0"
     id="path194"
     d="m 111.10156,120.77734 -4,-8 4,2 4,-2 z m 0,0"
     style="fill:#000000;fill-opacity:1;fill-rule:evenodd;stroke:#000000;stroke-width:1;stroke-linecap:butt;stroke-linejoin:miter;stroke-miterlimit:10;stroke-opacity:1" />
  <path
     inkscape:connector-curvature="0"
     id="path196"
     d="m 11.10156,41.10156 h 200 v 20 h -200 z m 0,0"
     style="fill:#a3d4a6;fill-opacity:1;fill-rule:evenodd;stroke:#000000;stroke-width:1;stroke-linecap:butt;stroke-linejoin:miter;stroke-miterlimit:10;stroke-opacity:1" />
  <g
     id="g220"
     style="fill:#000000;fill-opacity:1">
    <use
       height="100%"
       width="100%"
       id="use198"
       y="55.033474"
       x="73.71875"
       xlink:href="#glyph0-10" />
    <use
       height="100%"
       width="100%"
       id="use200"
       y="55.033474"
       x="84.595215"
       xlink:href="#glyph0-11" />
    <use
       height="100%"
       width="100%"
       id="use202"
       y="55.033474"
       x="87.839302"
       xlink:href="#glyph0-12" />
    <use
       height="100%"
       width="100%"
       id="use204"
       y="55.033474"
       x="96.309624"
       xlink:href="#glyph0-13" />
    <use
       height="100%"
       width="100%"
       id="use206"
       y="55.033474"
       x="103.02892"
       xlink:href="#glyph0-14" />
    <use
       height="100%"
       width="100%"
       id="use208"
       y="55.033474"
       x="111.3004"
       xlink:href="#glyph0-15" />
    <use
       height="100%"
       width="100%"
       id="use210"
       y="55.033474"
       x="114.79704"
       xlink:href="#glyph0-16" />
    <use
       height="100%"
       width="100%"
       id="use212"
       y="55.033474"
       x="124.01389"
       xlink:href="#glyph0-15" />
    <use
       height="100%"
       width="100%"
       id="use214"
       y="55.033474"
       x="127.51053"
       xlink:href="#glyph0-17" />
    <use
       height="100%"
       width="100%"
       id="use216"
       y="55.033474"
       x="134.50896"
       xlink:href="#glyph0-18" />
    <use
       height="100%"
       width="100%"
       id="use218"
       y="55.033474"
       x="141.50739"
       xlink:href="#glyph0-18" />
  </g>
  <path
     inkscape:connector-curvature="0"
     id="path222"
     d="m 11.10156,121.10156 h 200 v 20 h -200 z m 0,0"
     style="fill:#a3d4a6;fill-opacity:1;fill-rule:evenodd;stroke:#000000;stroke-width:1;stroke-linecap:butt;stroke-linejoin:miter;stroke-miterlimit:10;stroke-opacity:1" />
  <g
     id="g272"
     style="fill:#000000;fill-opacity:1">
    <use
       height="100%"
       width="100%"
       id="use224"
       y="135.03348"
       x="38.816406"
       xlink:href="#glyph0-19" />
    <use
       height="100%"
       width="100%"
       id="use226"
       y="135.03348"
       x="45.798828"
       xlink:href="#glyph0-1" />
    <use
       height="100%"
       width="100%"
       id="use228"
       y="135.03348"
       x="52.539551"
       xlink:href="#glyph0-20" />
    <use
       height="100%"
       width="100%"
       id="use230"
       y="135.03348"
       x="58.587456"
       xlink:href="#glyph0-21" />
    <use
       height="100%"
       width="100%"
       id="use232"
       y="135.03348"
       x="64.957626"
       xlink:href="#glyph0-22" />
    <use
       height="100%"
       width="100%"
       id="use234"
       y="135.03348"
       x="71.940048"
       xlink:href="#glyph0-4" />
    <use
       height="100%"
       width="100%"
       id="use236"
       y="135.03348"
       x="76.220917"
       xlink:href="#glyph0-23" />
    <use
       height="100%"
       width="100%"
       id="use238"
       y="135.03348"
       x="82.95079"
       xlink:href="#glyph0-3" />
    <use
       height="100%"
       width="100%"
       id="use240"
       y="135.03348"
       x="89.922363"
       xlink:href="#glyph0-24" />
    <use
       height="100%"
       width="100%"
       id="use242"
       y="135.03348"
       x="96.893936"
       xlink:href="#glyph0-25" />
    <use
       height="100%"
       width="100%"
       id="use244"
       y="135.03348"
       x="103.87636"
       xlink:href="#glyph0-26" />
    <use
       height="100%"
       width="100%"
       id="use246"
       y="135.03348"
       x="109.3763"
       xlink:href="#glyph0-20" />
    <use
       height="100%"
       width="100%"
       id="use248"
       y="135.03348"
       x="115.42421"
       xlink:href="#glyph0-23" />
    <use
       height="100%"
       width="100%"
       id="use250"
       y="135.03348"
       x="122.15408"
       xlink:href="#glyph0-27" />
    <use
       height="100%"
       width="100%"
       id="use252"
       y="135.03348"
       x="125.21017"
       xlink:href="#glyph0-23" />
    <use
       height="100%"
       width="100%"
       id="use254"
       y="135.03348"
       x="131.94005"
       xlink:href="#glyph0-3" />
    <use
       height="100%"
       width="100%"
       id="use256"
       y="135.03348"
       x="138.91162"
       xlink:href="#glyph0-4" />
    <use
       height="100%"
       width="100%"
       id="use258"
       y="135.03348"
       x="143.43419"
       xlink:href="#glyph0-15" />
    <use
       height="100%"
       width="100%"
       id="use260"
       y="135.03348"
       x="146.93083"
       xlink:href="#glyph0-16" />
    <use
       height="100%"
       width="100%"
       id="use262"
       y="135.03348"
       x="156.14767"
       xlink:href="#glyph0-15" />
    <use
       height="100%"
       width="100%"
       id="use264"
       y="135.03348"
       x="159.64432"
       xlink:href="#glyph0-19" />
    <use
       height="100%"
       width="100%"
       id="use266"
       y="135.03348"
       x="166.62674"
       xlink:href="#glyph0-27" />
    <use
       height="100%"
       width="100%"
       id="use268"
       y="135.03348"
       x="169.68283"
       xlink:href="#glyph0-1" />
    <use
       height="100%"
       width="100%"
       id="use270"
       y="135.03348"
       x="176.42355"
       xlink:href="#glyph0-3" />
  </g>
  <path
     inkscape:connector-curvature="0"
     id="path274"
     d="m 11.10156,81.10156 h 200 v 20 h -200 z m 0,0"
     style="fill:#a3d4a6;fill-opacity:1;fill-rule:evenodd;stroke:#000000;stroke-width:1;stroke-linecap:butt;stroke-linejoin:miter;stroke-miterlimit:10;stroke-opacity:1" />
  <g
     id="g300"
     style="fill:#000000;fill-opacity:1">
    <use
       height="100%"
       width="100%"
       id="use276"
       y="95.033478"
       x="71.511719"
       xlink:href="#glyph0-14" />
    <use
       height="100%"
       width="100%"
       id="use278"
       y="95.033478"
       x="79.783203"
       xlink:href="#glyph0-28" />
    <use
       height="100%"
       width="100%"
       id="use280"
       y="95.033478"
       x="86.733345"
       xlink:href="#glyph0-11" />
    <use
       height="100%"
       width="100%"
       id="use282"
       y="95.033478"
       x="89.977432"
       xlink:href="#glyph0-29" />
    <use
       height="100%"
       width="100%"
       id="use284"
       y="95.033478"
       x="98.501465"
       xlink:href="#glyph0-14" />
    <use
       height="100%"
       width="100%"
       id="use286"
       y="95.033478"
       x="106.77295"
       xlink:href="#glyph0-13" />
    <use
       height="100%"
       width="100%"
       id="use288"
       y="95.033478"
       x="113.49224"
       xlink:href="#glyph0-15" />
    <use
       height="100%"
       width="100%"
       id="use290"
       y="95.033478"
       x="116.98888"
       xlink:href="#glyph0-16" />
    <use
       height="100%"
       width="100%"
       id="use292"
       y="95.033478"
       x="126.20573"
       xlink:href="#glyph0-15" />
    <use
       height="100%"
       width="100%"
       id="use294"
       y="95.033478"
       x="129.70236"
       xlink:href="#glyph0-30" />
    <use
       height="100%"
       width="100%"
       id="use296"
       y="95.033478"
       x="136.70079"
       xlink:href="#glyph0-18" />
    <use
       height="100%"
       width="100%"
       id="use298"
       y="95.033478"
       x="143.69922"
       xlink:href="#glyph0-18" />
  </g>
  <path
     inkscape:connector-curvature="0"
     id="path302"
     d="m 11.10156,161.10156 h 200 v 20 h -200 z m 0,0"
     style="fill:#a3d4a6;fill-opacity:1;fill-rule:evenodd;stroke:#000000;stroke-width:1;stroke-linecap:butt;stroke-linejoin:miter;stroke-miterlimit:10;stroke-opacity:1" />
  <g
     id="g330"
     style="fill:#000000;fill-opacity:1">
    <use
       height="100%"
       width="100%"
       id="use304"
       y="175.03348"
       x="70.730469"
       xlink:href="#glyph0-12" />
    <use
       height="100%"
       width="100%"
       id="use306"
       y="175.03348"
       x="79.20079"
       xlink:href="#glyph0-31" />
    <use
       height="100%"
       width="100%"
       id="use308"
       y="175.03348"
       x="85.968369"
       xlink:href="#glyph0-32" />
    <use
       height="100%"
       width="100%"
       id="use310"
       y="175.03348"
       x="92.897079"
       xlink:href="#glyph0-24" />
    <use
       height="100%"
       width="100%"
       id="use312"
       y="175.03348"
       x="99.868652"
       xlink:href="#glyph0-5" />
    <use
       height="100%"
       width="100%"
       id="use314"
       y="175.03348"
       x="102.92475"
       xlink:href="#glyph0-31" />
    <use
       height="100%"
       width="100%"
       id="use316"
       y="175.03348"
       x="109.69233"
       xlink:href="#glyph0-4" />
    <use
       height="100%"
       width="100%"
       id="use318"
       y="175.03348"
       x="113.9732"
       xlink:href="#glyph0-31" />
    <use
       height="100%"
       width="100%"
       id="use320"
       y="175.03348"
       x="120.74078"
       xlink:href="#glyph0-15" />
    <use
       height="100%"
       width="100%"
       id="use322"
       y="175.03348"
       x="124.23741"
       xlink:href="#glyph0-25" />
    <use
       height="100%"
       width="100%"
       id="use324"
       y="175.03348"
       x="131.21983"
       xlink:href="#glyph0-4" />
    <use
       height="100%"
       width="100%"
       id="use326"
       y="175.03348"
       x="135.7424"
       xlink:href="#glyph0-1" />
    <use
       height="100%"
       width="100%"
       id="use328"
       y="175.03348"
       x="142.48312"
       xlink:href="#glyph0-33" />
  </g>
  <path
     inkscape:connector-curvature="0"
     id="path332"
     d="M 111.10156,141.10156 V 154.875"
     style="fill:none;stroke:#000000;stroke-width:1;stroke-linecap:butt;stroke-linejoin:miter;stroke-miterlimit:10;stroke-opacity:1" />
  <path
     inkscape:connector-curvature="0"
     id="path334"
     d="m 111.10156,160.875 -4,-8 4,2 4,-2 z m 0,0"
     style="fill:#000000;fill-opacity:1;fill-rule:evenodd;stroke:#000000;stroke-width:1;stroke-linecap:butt;stroke-linejoin:miter;stroke-miterlimit:10;stroke-opacity:1" />
  <path
     inkscape:connector-curvature="0"
     id="path336"
     d="m 11.10156,201.10156 h 200 v 20 h -200 z m 0,0"
     style="fill:#ee9999;fill-opacity:1;fill-rule:evenodd;stroke:#000000;stroke-width:1;stroke-linecap:butt;stroke-linejoin:miter;stroke-miterlimit:10;stroke-opacity:1" />
  <g
     id="g374"
     style="fill:#000000;fill-opacity:1">
    <use
       height="100%"
       width="100%"
       id="use338"
       y="215.03348"
       x="55.964844"
       xlink:href="#glyph0-34" />
    <use
       height="100%"
       width="100%"
       id="use340"
       y="215.03348"
       x="62.947266"
       xlink:href="#glyph0-35" />
    <use
       height="100%"
       width="100%"
       id="use342"
       y="215.03348"
       x="67.260147"
       xlink:href="#glyph0-1" />
    <use
       height="100%"
       width="100%"
       id="use344"
       y="215.03348"
       x="74.00087"
       xlink:href="#glyph0-4" />
    <use
       height="100%"
       width="100%"
       id="use346"
       y="215.03348"
       x="78.523438"
       xlink:href="#glyph0-35" />
    <use
       height="100%"
       width="100%"
       id="use348"
       y="215.03348"
       x="82.836319"
       xlink:href="#glyph0-31" />
    <use
       height="100%"
       width="100%"
       id="use350"
       y="215.03348"
       x="89.603897"
       xlink:href="#glyph0-15" />
    <use
       height="100%"
       width="100%"
       id="use352"
       y="215.03348"
       x="93.100533"
       xlink:href="#glyph0-36" />
    <use
       height="100%"
       width="100%"
       id="use354"
       y="215.03348"
       x="99.733833"
       xlink:href="#glyph0-9" />
    <use
       height="100%"
       width="100%"
       id="use356"
       y="215.03348"
       x="106.24371"
       xlink:href="#glyph0-22" />
    <use
       height="100%"
       width="100%"
       id="use358"
       y="215.03348"
       x="113.22613"
       xlink:href="#glyph0-1" />
    <use
       height="100%"
       width="100%"
       id="use360"
       y="215.03348"
       x="119.96685"
       xlink:href="#glyph0-6" />
    <use
       height="100%"
       width="100%"
       id="use362"
       y="215.03348"
       x="130.68219"
       xlink:href="#glyph0-31" />
    <use
       height="100%"
       width="100%"
       id="use364"
       y="215.03348"
       x="137.44977"
       xlink:href="#glyph0-15" />
    <use
       height="100%"
       width="100%"
       id="use366"
       y="215.03348"
       x="140.9464"
       xlink:href="#glyph0-37" />
    <use
       height="100%"
       width="100%"
       id="use368"
       y="215.03348"
       x="148.48193"
       xlink:href="#glyph0-31" />
    <use
       height="100%"
       width="100%"
       id="use370"
       y="215.03348"
       x="155.24951"
       xlink:href="#glyph0-4" />
    <use
       height="100%"
       width="100%"
       id="use372"
       y="215.03348"
       x="159.53038"
       xlink:href="#glyph0-23" />
  </g>
  <path
     inkscape:connector-curvature="0"
     id="path376"
     d="m 21.10156,201.10156 v 20"
     style="fill:none;stroke:#000000;stroke-width:1;stroke-linecap:butt;stroke-linejoin:miter;stroke-miterlimit:10;stroke-opacity:1" />
  <path
     inkscape:connector-curvature="0"
     id="path378"
     d="m 201.10156,201.10156 v 20"
     style="fill:none;stroke:#000000;stroke-width:1;stroke-linecap:butt;stroke-linejoin:miter;stroke-miterlimit:10;stroke-opacity:1" />
  <path
     inkscape:connector-curvature="0"
     id="path380"
     d="m 41.10156,241.10156 c -5.52344,0 -10,4.47656 -10,10 0,5.51954 4.47656,10 10,10 h 140 c 5.51954,0 10,-4.48046 10,-10 0,-5.52344 -4.48046,-10 -10,-10 z m 0,0"
     style="fill:#8fcaf8;fill-opacity:1;fill-rule:evenodd;stroke:#000000;stroke-width:1;stroke-linecap:butt;stroke-linejoin:round;stroke-miterlimit:10;stroke-opacity:1" />
  <g
     id="g390"
     style="fill:#000000;fill-opacity:1">
    <use
       height="100%"
       width="100%"
       id="use382"
       y="255.03348"
       x="97.273438"
       xlink:href="#glyph0-28" />
    <use
       height="100%"
       width="100%"
       id="use384"
       y="255.03348"
       x="104.22358"
       xlink:href="#glyph0-24" />
    <use
       height="100%"
       width="100%"
       id="use386"
       y="255.03348"
       x="111.19515"
       xlink:href="#glyph0-25" />
    <use
       height="100%"
       width="100%"
       id="use388"
       y="255.03348"
       x="118.17757"
       xlink:href="#glyph0-31" />
  </g>
  <path
     inkscape:connector-curvature="0"
     id="path392"
     d="M 111.10156,181.10156 V 194.875"
     style="fill:none;stroke:#000000;stroke-width:1;stroke-linecap:butt;stroke-linejoin:round;stroke-miterlimit:10;stroke-opacity:1" />
  <path
     inkscape:connector-curvature="0"
     id="path394"
     d="m 111.10156,200.875 -4,-8 4,2 4,-2 z m 0,0"
     style="fill:#000000;fill-opacity:1;fill-rule:evenodd;stroke:#000000;stroke-width:1;stroke-linecap:butt;stroke-linejoin:miter;stroke-miterlimit:10;stroke-opacity:1" />
  <path
     inkscape:connector-curvature="0"
     id="path396"
     d="M 111.10156,221.10156 V 234.875"
     style="fill:none;stroke:#000000;stroke-width:1;stroke-linecap:butt;stroke-linejoin:miter;stroke-miterlimit:10;stroke-opacity:1" />
  <path
     inkscape:connector-curvature="0"
     id="path398"
     d="m 111.10156,240.875 -4,-8 4,2 4,-2 z m 0,0"
     style="fill:#000000;fill-opacity:1;fill-rule:evenodd;stroke:#000000;stroke-width:1;stroke-linecap:butt;stroke-linejoin:miter;stroke-miterlimit:10;stroke-opacity:1" />
  <path
     inkscape:connector-curvature="0"
     id="path400"
     d="m 301.10156,41.10156 c -5.52344,0 -10,4.47656 -10,10 0,5.51954 4.47656,10 10,10 h 140 c 5.51954,0 10,-4.48046 10,-10 0,-5.52344 -4.48046,-10 -10,-10 z m 0,0"
     style="fill:#8fcaf8;fill-opacity:1;fill-rule:evenodd;stroke:#000000;stroke-width:1;stroke-linecap:butt;stroke-linejoin:round;stroke-miterlimit:10;stroke-opacity:1" />
  <g
     id="g424"
     style="fill:#000000;fill-opacity:1">
    <use
       height="100%"
       width="100%"
       id="use402"
       y="55.033474"
       x="334.53906"
       xlink:href="#glyph0-36" />
    <use
       height="100%"
       width="100%"
       id="use404"
       y="55.033474"
       x="341.17236"
       xlink:href="#glyph0-9" />
    <use
       height="100%"
       width="100%"
       id="use406"
       y="55.033474"
       x="347.68225"
       xlink:href="#glyph0-22" />
    <use
       height="100%"
       width="100%"
       id="use408"
       y="55.033474"
       x="354.66467"
       xlink:href="#glyph0-1" />
    <use
       height="100%"
       width="100%"
       id="use410"
       y="55.033474"
       x="361.4054"
       xlink:href="#glyph0-6" />
    <use
       height="100%"
       width="100%"
       id="use412"
       y="55.033474"
       x="372.12073"
       xlink:href="#glyph0-31" />
    <use
       height="100%"
       width="100%"
       id="use414"
       y="55.033474"
       x="378.88831"
       xlink:href="#glyph0-15" />
    <use
       height="100%"
       width="100%"
       id="use416"
       y="55.033474"
       x="382.38492"
       xlink:href="#glyph0-37" />
    <use
       height="100%"
       width="100%"
       id="use418"
       y="55.033474"
       x="389.92047"
       xlink:href="#glyph0-31" />
    <use
       height="100%"
       width="100%"
       id="use420"
       y="55.033474"
       x="396.68805"
       xlink:href="#glyph0-4" />
    <use
       height="100%"
       width="100%"
       id="use422"
       y="55.033474"
       x="400.9689"
       xlink:href="#glyph0-23" />
  </g>
  <path
     inkscape:connector-curvature="0"
     id="path426"
     d="m 271.10156,81.10156 h 200 v 40 h -200 z m 0,0"
     style="fill:#ee9999;fill-opacity:1;fill-rule:evenodd;stroke:#000000;stroke-width:1;stroke-linecap:butt;stroke-linejoin:miter;stroke-miterlimit:10;stroke-opacity:1" />
  <g
     id="g468"
     style="fill:#000000;fill-opacity:1">
    <use
       height="100%"
       width="100%"
       id="use428"
       y="97.97879"
       x="317.58594"
       xlink:href="#glyph0-28" />
    <use
       height="100%"
       width="100%"
       id="use430"
       y="97.97879"
       x="324.53607"
       xlink:href="#glyph0-4" />
    <use
       height="100%"
       width="100%"
       id="use432"
       y="97.97879"
       x="329.05865"
       xlink:href="#glyph0-38" />
    <use
       height="100%"
       width="100%"
       id="use434"
       y="97.97879"
       x="334.7897"
       xlink:href="#glyph0-35" />
    <use
       height="100%"
       width="100%"
       id="use436"
       y="97.97879"
       x="339.1026"
       xlink:href="#glyph0-31" />
    <use
       height="100%"
       width="100%"
       id="use438"
       y="97.97879"
       x="345.87018"
       xlink:href="#glyph0-27" />
    <use
       height="100%"
       width="100%"
       id="use440"
       y="97.97879"
       x="348.92627"
       xlink:href="#glyph0-27" />
    <use
       height="100%"
       width="100%"
       id="use442"
       y="97.97879"
       x="351.98236"
       xlink:href="#glyph0-31" />
    <use
       height="100%"
       width="100%"
       id="use444"
       y="97.97879"
       x="358.74994"
       xlink:href="#glyph0-15" />
    <use
       height="100%"
       width="100%"
       id="use446"
       y="97.97879"
       x="362.24658"
       xlink:href="#glyph0-39" />
    <use
       height="100%"
       width="100%"
       id="use448"
       y="97.97879"
       x="367.97195"
       xlink:href="#glyph0-31" />
    <use
       height="100%"
       width="100%"
       id="use450"
       y="97.97879"
       x="374.73953"
       xlink:href="#glyph0-24" />
    <use
       height="100%"
       width="100%"
       id="use452"
       y="97.97879"
       x="381.71109"
       xlink:href="#glyph0-38" />
    <use
       height="100%"
       width="100%"
       id="use454"
       y="97.97879"
       x="387.44217"
       xlink:href="#glyph0-35" />
    <use
       height="100%"
       width="100%"
       id="use456"
       y="97.97879"
       x="391.75504"
       xlink:href="#glyph0-31" />
    <use
       height="100%"
       width="100%"
       id="use458"
       y="97.97879"
       x="398.52261"
       xlink:href="#glyph0-4" />
    <use
       height="100%"
       width="100%"
       id="use460"
       y="97.97879"
       x="403.0452"
       xlink:href="#glyph0-15" />
    <use
       height="100%"
       width="100%"
       id="use462"
       y="97.97879"
       x="406.54184"
       xlink:href="#glyph0-6" />
    <use
       height="100%"
       width="100%"
       id="use464"
       y="97.97879"
       x="417.25717"
       xlink:href="#glyph0-5" />
    <use
       height="100%"
       width="100%"
       id="use466"
       y="97.97879"
       x="420.31326"
       xlink:href="#glyph0-35" />
  </g>
  <g
     id="g512"
     style="fill:#000000;fill-opacity:1">
    <use
       height="100%"
       width="100%"
       id="use470"
       y="112.09207"
       x="302.58594"
       xlink:href="#glyph0-29" />
    <use
       height="100%"
       width="100%"
       id="use472"
       y="112.09207"
       x="311.10999"
       xlink:href="#glyph0-4" />
    <use
       height="100%"
       width="100%"
       id="use474"
       y="112.09207"
       x="315.39084"
       xlink:href="#glyph0-40" />
    <use
       height="100%"
       width="100%"
       id="use476"
       y="112.09207"
       x="322.12073"
       xlink:href="#glyph0-38" />
    <use
       height="100%"
       width="100%"
       id="use478"
       y="112.09207"
       x="327.85178"
       xlink:href="#glyph0-38" />
    <use
       height="100%"
       width="100%"
       id="use480"
       y="112.09207"
       x="333.58286"
       xlink:href="#glyph0-31" />
    <use
       height="100%"
       width="100%"
       id="use482"
       y="112.09207"
       x="340.35043"
       xlink:href="#glyph0-15" />
    <use
       height="100%"
       width="100%"
       id="use484"
       y="112.09207"
       x="343.84705"
       xlink:href="#glyph0-10" />
    <use
       height="100%"
       width="100%"
       id="use486"
       y="112.09207"
       x="354.72351"
       xlink:href="#glyph0-11" />
    <use
       height="100%"
       width="100%"
       id="use488"
       y="112.09207"
       x="357.96762"
       xlink:href="#glyph0-12" />
    <use
       height="100%"
       width="100%"
       id="use490"
       y="112.09207"
       x="366.43793"
       xlink:href="#glyph0-13" />
    <use
       height="100%"
       width="100%"
       id="use492"
       y="112.09207"
       x="373.15723"
       xlink:href="#glyph0-14" />
    <use
       height="100%"
       width="100%"
       id="use494"
       y="112.09207"
       x="381.42871"
       xlink:href="#glyph0-15" />
    <use
       height="100%"
       width="100%"
       id="use496"
       y="112.09207"
       x="384.92535"
       xlink:href="#glyph0-41" />
    <use
       height="100%"
       width="100%"
       id="use498"
       y="112.09207"
       x="394.14221"
       xlink:href="#glyph0-15" />
    <use
       height="100%"
       width="100%"
       id="use500"
       y="112.09207"
       x="397.63882"
       xlink:href="#glyph0-14" />
    <use
       height="100%"
       width="100%"
       id="use502"
       y="112.09207"
       x="405.91031"
       xlink:href="#glyph0-28" />
    <use
       height="100%"
       width="100%"
       id="use504"
       y="112.09207"
       x="412.86047"
       xlink:href="#glyph0-11" />
    <use
       height="100%"
       width="100%"
       id="use506"
       y="112.09207"
       x="416.10455"
       xlink:href="#glyph0-29" />
    <use
       height="100%"
       width="100%"
       id="use508"
       y="112.09207"
       x="424.62857"
       xlink:href="#glyph0-14" />
    <use
       height="100%"
       width="100%"
       id="use510"
       y="112.09207"
       x="432.90005"
       xlink:href="#glyph0-13" />
  </g>
  <path
     inkscape:connector-curvature="0"
     id="path514"
     d="m 271.10156,141.10156 h 200 v 20 h -200 z m 0,0"
     style="fill:#ee9999;fill-opacity:1;fill-rule:evenodd;stroke:#000000;stroke-width:1;stroke-linecap:butt;stroke-linejoin:miter;stroke-miterlimit:10;stroke-opacity:1" />
  <g
     id="g542"
     style="fill:#000000;fill-opacity:1">
    <use
       height="100%"
       width="100%"
       id="use516"
       y="155.03348"
       x="332.82031"
       xlink:href="#glyph0-42" />
    <use
       height="100%"
       width="100%"
       id="use518"
       y="155.03348"
       x="339.96902"
       xlink:href="#glyph0-3" />
    <use
       height="100%"
       width="100%"
       id="use520"
       y="155.03348"
       x="346.94058"
       xlink:href="#glyph0-43" />
    <use
       height="100%"
       width="100%"
       id="use522"
       y="155.03348"
       x="350.8132"
       xlink:href="#glyph0-31" />
    <use
       height="100%"
       width="100%"
       id="use524"
       y="155.03348"
       x="357.58078"
       xlink:href="#glyph0-15" />
    <use
       height="100%"
       width="100%"
       id="use526"
       y="155.03348"
       x="361.07742"
       xlink:href="#glyph0-25" />
    <use
       height="100%"
       width="100%"
       id="use528"
       y="155.03348"
       x="368.05984"
       xlink:href="#glyph0-4" />
    <use
       height="100%"
       width="100%"
       id="use530"
       y="155.03348"
       x="372.5824"
       xlink:href="#glyph0-1" />
    <use
       height="100%"
       width="100%"
       id="use532"
       y="155.03348"
       x="379.32312"
       xlink:href="#glyph0-33" />
    <use
       height="100%"
       width="100%"
       id="use534"
       y="155.03348"
       x="388.3197"
       xlink:href="#glyph0-15" />
    <use
       height="100%"
       width="100%"
       id="use536"
       y="155.03348"
       x="391.81635"
       xlink:href="#glyph0-1" />
    <use
       height="100%"
       width="100%"
       id="use538"
       y="155.03348"
       x="398.55707"
       xlink:href="#glyph0-3" />
    <use
       height="100%"
       width="100%"
       id="use540"
       y="155.03348"
       x="405.52866"
       xlink:href="#glyph0-43" />
  </g>
  <path
     inkscape:connector-curvature="0"
     id="path544"
     d="m 281.10156,141.10156 v 20"
     style="fill:none;stroke:#000000;stroke-width:1;stroke-linecap:butt;stroke-linejoin:miter;stroke-miterlimit:10;stroke-opacity:1" />
  <path
     inkscape:connector-curvature="0"
     id="path546"
     d="m 461.10156,141.10156 v 20"
     style="fill:none;stroke:#000000;stroke-width:1;stroke-linecap:butt;stroke-linejoin:miter;stroke-miterlimit:10;stroke-opacity:1" />
  <path
     inkscape:connector-curvature="0"
     id="path548"
     d="m 301.10156,181.10156 c -5.52344,0 -10,4.47656 -10,10 0,5.51954 4.47656,10 10,10 h 140 c 5.51954,0 10,-4.48046 10,-10 0,-5.52344 -4.48046,-10 -10,-10 z m 0,0"
     style="fill:#8fcaf8;fill-opacity:1;fill-rule:evenodd;stroke:#000000;stroke-width:1;stroke-linecap:butt;stroke-linejoin:round;stroke-miterlimit:10;stroke-opacity:1" />
  <g
     id="g558"
     style="fill:#000000;fill-opacity:1">
    <use
       height="100%"
       width="100%"
       id="use550"
       y="195.03348"
       x="357.27344"
       xlink:href="#glyph0-28" />
    <use
       height="100%"
       width="100%"
       id="use552"
       y="195.03348"
       x="364.22357"
       xlink:href="#glyph0-24" />
    <use
       height="100%"
       width="100%"
       id="use554"
       y="195.03348"
       x="371.19516"
       xlink:href="#glyph0-25" />
    <use
       height="100%"
       width="100%"
       id="use556"
       y="195.03348"
       x="378.17758"
       xlink:href="#glyph0-31" />
  </g>
  <path
     inkscape:connector-curvature="0"
     id="path560"
     d="M 371.10156,161.10156 V 174.875"
     style="fill:none;stroke:#000000;stroke-width:1;stroke-linecap:butt;stroke-linejoin:round;stroke-miterlimit:10;stroke-opacity:1" />
  <path
     inkscape:connector-curvature="0"
     id="path562"
     d="m 371.10156,180.875 -4,-8 4,2 4,-2 z m 0,0"
     style="fill:#000000;fill-opacity:1;fill-rule:evenodd;stroke:#000000;stroke-width:1;stroke-linecap:butt;stroke-linejoin:miter;stroke-miterlimit:10;stroke-opacity:1" />
  <path
     inkscape:connector-curvature="0"
     id="path564"
     d="m 371.10156,201.1914 v 19.91016 H 217.32422"
     style="fill:none;stroke:#000000;stroke-width:1;stroke-linecap:butt;stroke-linejoin:miter;stroke-miterlimit:10;stroke-dasharray:2, 2;stroke-opacity:1" />
  <path
     inkscape:connector-curvature="0"
     id="path566"
     d="m 211.32422,221.10156 8,-4 -2,4 2,4 z m 0,0"
     style="fill:#000000;fill-opacity:1;fill-rule:evenodd;stroke:#000000;stroke-width:1;stroke-linecap:butt;stroke-linejoin:miter;stroke-miterlimit:10;stroke-opacity:1" />
  <path
     inkscape:connector-curvature="0"
     id="path568"
     d="m 561.10156,41.10156 c -5.52344,0 -10,4.47656 -10,10 0,5.51954 4.47656,10 10,10 h 140 c 5.51954,0 10,-4.48046 10,-10 0,-5.52344 -4.48046,-10 -10,-10 z m 0,0"
     style="fill:#8fcaf8;fill-opacity:1;fill-rule:evenodd;stroke:#000000;stroke-width:1;stroke-linecap:butt;stroke-linejoin:round;stroke-miterlimit:10;stroke-opacity:1" />
  <g
     id="g578"
     style="fill:#000000;fill-opacity:1">
    <use
       height="100%"
       width="100%"
       id="use570"
       y="55.033474"
       x="617.48828"
       xlink:href="#glyph0-25" />
    <use
       height="100%"
       width="100%"
       id="use572"
       y="55.033474"
       x="624.4707"
       xlink:href="#glyph0-4" />
    <use
       height="100%"
       width="100%"
       id="use574"
       y="55.033474"
       x="628.99329"
       xlink:href="#glyph0-1" />
    <use
       height="100%"
       width="100%"
       id="use576"
       y="55.033474"
       x="635.73401"
       xlink:href="#glyph0-33" />
  </g>
  <path
     inkscape:connector-curvature="0"
     id="path580"
     d="m 531.10156,81.10156 h 200 v 40 h -200 z m 0,0"
     style="fill:#ee9999;fill-opacity:1;fill-rule:evenodd;stroke:#000000;stroke-width:1;stroke-linecap:butt;stroke-linejoin:miter;stroke-miterlimit:10;stroke-opacity:1" />
  <g
     id="g616"
     style="fill:#000000;fill-opacity:1">
    <use
       height="100%"
       width="100%"
       id="use582"
       y="97.97879"
       x="583.50391"
       xlink:href="#glyph0-39" />
    <use
       height="100%"
       width="100%"
       id="use584"
       y="97.97879"
       x="589.22925"
       xlink:href="#glyph0-44" />
    <use
       height="100%"
       width="100%"
       id="use586"
       y="97.97879"
       x="596.20087"
       xlink:href="#glyph0-27" />
    <use
       height="100%"
       width="100%"
       id="use588"
       y="97.97879"
       x="599.25696"
       xlink:href="#glyph0-27" />
    <use
       height="100%"
       width="100%"
       id="use590"
       y="97.97879"
       x="602.31305"
       xlink:href="#glyph0-31" />
    <use
       height="100%"
       width="100%"
       id="use592"
       y="97.97879"
       x="609.08063"
       xlink:href="#glyph0-15" />
    <use
       height="100%"
       width="100%"
       id="use594"
       y="97.97879"
       x="612.57727"
       xlink:href="#glyph0-14" />
    <use
       height="100%"
       width="100%"
       id="use596"
       y="97.97879"
       x="620.84875"
       xlink:href="#glyph0-5" />
    <use
       height="100%"
       width="100%"
       id="use598"
       y="97.97879"
       x="623.90485"
       xlink:href="#glyph0-24" />
    <use
       height="100%"
       width="100%"
       id="use600"
       y="97.97879"
       x="630.8764"
       xlink:href="#glyph0-35" />
    <use
       height="100%"
       width="100%"
       id="use602"
       y="97.97879"
       x="635.18927"
       xlink:href="#glyph0-31" />
    <use
       height="100%"
       width="100%"
       id="use604"
       y="97.97879"
       x="641.95685"
       xlink:href="#glyph0-4" />
    <use
       height="100%"
       width="100%"
       id="use606"
       y="97.97879"
       x="646.28601"
       xlink:href="#glyph0-22" />
    <use
       height="100%"
       width="100%"
       id="use608"
       y="97.97879"
       x="653.26843"
       xlink:href="#glyph0-4" />
    <use
       height="100%"
       width="100%"
       id="use610"
       y="97.97879"
       x="657.79102"
       xlink:href="#glyph0-3" />
    <use
       height="100%"
       width="100%"
       id="use612"
       y="97.97879"
       x="664.76257"
       xlink:href="#glyph0-24" />
    <use
       height="100%"
       width="100%"
       id="use614"
       y="97.97879"
       x="671.73413"
       xlink:href="#glyph0-25" />
  </g>
  <g
     id="g660"
     style="fill:#000000;fill-opacity:1">
    <use
       height="100%"
       width="100%"
       id="use618"
       y="112.09207"
       x="568.01562"
       xlink:href="#glyph0-6" />
    <use
       height="100%"
       width="100%"
       id="use620"
       y="112.09207"
       x="578.73096"
       xlink:href="#glyph0-5" />
    <use
       height="100%"
       width="100%"
       id="use622"
       y="112.09207"
       x="581.78705"
       xlink:href="#glyph0-35" />
    <use
       height="100%"
       width="100%"
       id="use624"
       y="112.09207"
       x="586.09991"
       xlink:href="#glyph0-15" />
    <use
       height="100%"
       width="100%"
       id="use626"
       y="112.09207"
       x="589.59656"
       xlink:href="#glyph0-19" />
    <use
       height="100%"
       width="100%"
       id="use628"
       y="112.09207"
       x="596.57898"
       xlink:href="#glyph0-1" />
    <use
       height="100%"
       width="100%"
       id="use630"
       y="112.09207"
       x="603.3197"
       xlink:href="#glyph0-20" />
    <use
       height="100%"
       width="100%"
       id="use632"
       y="112.09207"
       x="609.36761"
       xlink:href="#glyph0-21" />
    <use
       height="100%"
       width="100%"
       id="use634"
       y="112.09207"
       x="615.73779"
       xlink:href="#glyph0-22" />
    <use
       height="100%"
       width="100%"
       id="use636"
       y="112.09207"
       x="622.72021"
       xlink:href="#glyph0-4" />
    <use
       height="100%"
       width="100%"
       id="use638"
       y="112.09207"
       x="627.0011"
       xlink:href="#glyph0-23" />
    <use
       height="100%"
       width="100%"
       id="use640"
       y="112.09207"
       x="633.73096"
       xlink:href="#glyph0-3" />
    <use
       height="100%"
       width="100%"
       id="use642"
       y="112.09207"
       x="640.70251"
       xlink:href="#glyph0-24" />
    <use
       height="100%"
       width="100%"
       id="use644"
       y="112.09207"
       x="647.67407"
       xlink:href="#glyph0-25" />
    <use
       height="100%"
       width="100%"
       id="use646"
       y="112.09207"
       x="654.65649"
       xlink:href="#glyph0-26" />
    <use
       height="100%"
       width="100%"
       id="use648"
       y="112.09207"
       x="660.15649"
       xlink:href="#glyph0-20" />
    <use
       height="100%"
       width="100%"
       id="use650"
       y="112.09207"
       x="666.20435"
       xlink:href="#glyph0-23" />
    <use
       height="100%"
       width="100%"
       id="use652"
       y="112.09207"
       x="672.93427"
       xlink:href="#glyph0-27" />
    <use
       height="100%"
       width="100%"
       id="use654"
       y="112.09207"
       x="675.99036"
       xlink:href="#glyph0-23" />
    <use
       height="100%"
       width="100%"
       id="use656"
       y="112.09207"
       x="682.72021"
       xlink:href="#glyph0-3" />
    <use
       height="100%"
       width="100%"
       id="use658"
       y="112.09207"
       x="689.69177"
       xlink:href="#glyph0-4" />
  </g>
  <path
     inkscape:connector-curvature="0"
     id="path662"
     d="m 541.10156,81.10156 v 40"
     style="fill:none;stroke:#000000;stroke-width:1;stroke-linecap:butt;stroke-linejoin:miter;stroke-miterlimit:10;stroke-opacity:1" />
  <path
     inkscape:connector-curvature="0"
     id="path664"
     d="m 561.10156,141.10156 c -5.52344,0 -10,4.47656 -10,10 0,5.51954 4.47656,10 10,10 h 140 c 5.51954,0 10,-4.48046 10,-10 0,-5.52344 -4.48046,-10 -10,-10 z m 0,0"
     style="fill:#8fcaf8;fill-opacity:1;fill-rule:evenodd;stroke:#000000;stroke-width:1;stroke-linecap:butt;stroke-linejoin:round;stroke-miterlimit:10;stroke-opacity:1" />
  <g
     id="g674"
     style="fill:#000000;fill-opacity:1">
    <use
       height="100%"
       width="100%"
       id="use666"
       y="155.03348"
       x="617.27344"
       xlink:href="#glyph0-28" />
    <use
       height="100%"
       width="100%"
       id="use668"
       y="155.03348"
       x="624.22357"
       xlink:href="#glyph0-24" />
    <use
       height="100%"
       width="100%"
       id="use670"
       y="155.03348"
       x="631.19513"
       xlink:href="#glyph0-25" />
    <use
       height="100%"
       width="100%"
       id="use672"
       y="155.03348"
       x="638.17755"
       xlink:href="#glyph0-31" />
  </g>
  <path
     inkscape:connector-curvature="0"
     id="path676"
     d="M 631.10156,121.10156 V 134.875"
     style="fill:none;stroke:#000000;stroke-width:1;stroke-linecap:butt;stroke-linejoin:round;stroke-miterlimit:10;stroke-opacity:1" />
  <path
     inkscape:connector-curvature="0"
     id="path678"
     d="m 631.10156,140.875 -4,-8 4,2 4,-2 z m 0,0"
     style="fill:#000000;fill-opacity:1;fill-rule:evenodd;stroke:#000000;stroke-width:1;stroke-linecap:butt;stroke-linejoin:miter;stroke-miterlimit:10;stroke-opacity:1" />
  <path
     inkscape:connector-curvature="0"
     id="path680"
     d="m 721.10156,81.10156 v 40"
     style="fill:none;stroke:#000000;stroke-width:1;stroke-linecap:butt;stroke-linejoin:miter;stroke-miterlimit:10;stroke-opacity:1" />
  <path
     inkscape:connector-curvature="0"
     id="path682"
     d="M 631.10156,61.10156 V 74.875"
     style="fill:none;stroke:#000000;stroke-width:1;stroke-linecap:butt;stroke-linejoin:miter;stroke-miterlimit:10;stroke-opacity:1" />
  <path
     inkscape:connector-curvature="0"
     id="path684"
     d="m 631.10156,80.875 -4,-8 4,2 4,-2 z m 0,0"
     style="fill:#000000;fill-opacity:1;fill-rule:evenodd;stroke:#000000;stroke-width:1;stroke-linecap:butt;stroke-linejoin:miter;stroke-miterlimit:10;stroke-opacity:1" />
  <path
     inkscape:connector-curvature="0"
     id="path686"
     d="m 471.10156,141.10156 h 20 v -90 H 544.875"
     style="fill:none;stroke:#000000;stroke-width:1;stroke-linecap:butt;stroke-linejoin:miter;stroke-miterlimit:10;stroke-dasharray:2, 2;stroke-opacity:1" />
  <path
     inkscape:connector-curvature="0"
     id="path688"
     d="m 550.875,51.10156 -8,4 2,-4 -2,-4 z m 0,0"
     style="fill:#000000;fill-opacity:1;fill-rule:evenodd;stroke:#000000;stroke-width:1;stroke-linecap:butt;stroke-linejoin:miter;stroke-miterlimit:10;stroke-opacity:1" />
  <path
     inkscape:connector-curvature="0"
     id="path690"
     d="m 631.10156,161.10156 v 20 h -140 v -20 h -13.77734"
     style="fill:none;stroke:#000000;stroke-width:1;stroke-linecap:butt;stroke-linejoin:miter;stroke-miterlimit:10;stroke-dasharray:2, 2;stroke-opacity:1" />
  <path
     inkscape:connector-curvature="0"
     id="path692"
     d="m 471.32422,161.10156 8,-4 -2,4 2,4 z m 0,0"
     style="fill:#000000;fill-opacity:1;fill-rule:evenodd;stroke:#000000;stroke-width:1;stroke-linecap:butt;stroke-linejoin:miter;stroke-miterlimit:10;stroke-opacity:1" />
  <g
     id="g764"
     style="fill:#000000;fill-opacity:1">
    <use
       height="100%"
       width="100%"
       id="use694"
       y="15.033474"
       x="265.69141"
       xlink:href="#glyph0-45" />
    <use
       height="100%"
       width="100%"
       id="use696"
       y="15.033474"
       x="272.36243"
       xlink:href="#glyph0-31" />
    <use
       height="100%"
       width="100%"
       id="use698"
       y="15.033474"
       x="279.13"
       xlink:href="#glyph0-4" />
    <use
       height="100%"
       width="100%"
       id="use700"
       y="15.033474"
       x="283.65256"
       xlink:href="#glyph0-38" />
    <use
       height="100%"
       width="100%"
       id="use702"
       y="15.033474"
       x="289.38364"
       xlink:href="#glyph0-35" />
    <use
       height="100%"
       width="100%"
       id="use704"
       y="15.033474"
       x="293.6965"
       xlink:href="#glyph0-31" />
    <use
       height="100%"
       width="100%"
       id="use706"
       y="15.033474"
       x="300.46408"
       xlink:href="#glyph0-20" />
    <use
       height="100%"
       width="100%"
       id="use708"
       y="15.033474"
       x="306.51199"
       xlink:href="#glyph0-21" />
    <use
       height="100%"
       width="100%"
       id="use710"
       y="15.033474"
       x="312.88217"
       xlink:href="#glyph0-35" />
    <use
       height="100%"
       width="100%"
       id="use712"
       y="15.033474"
       x="317.19504"
       xlink:href="#glyph0-31" />
    <use
       height="100%"
       width="100%"
       id="use714"
       y="15.033474"
       x="323.96262"
       xlink:href="#glyph0-15" />
    <use
       height="100%"
       width="100%"
       id="use716"
       y="15.033474"
       x="327.45926"
       xlink:href="#glyph0-46" />
    <use
       height="100%"
       width="100%"
       id="use718"
       y="15.033474"
       x="334.98422"
       xlink:href="#glyph0-21" />
    <use
       height="100%"
       width="100%"
       id="use720"
       y="15.033474"
       x="341.35437"
       xlink:href="#glyph0-35" />
    <use
       height="100%"
       width="100%"
       id="use722"
       y="15.033474"
       x="345.66727"
       xlink:href="#glyph0-5" />
    <use
       height="100%"
       width="100%"
       id="use724"
       y="15.033474"
       x="348.72336"
       xlink:href="#glyph0-23" />
    <use
       height="100%"
       width="100%"
       id="use726"
       y="15.033474"
       x="355.45325"
       xlink:href="#glyph0-24" />
    <use
       height="100%"
       width="100%"
       id="use728"
       y="15.033474"
       x="362.4248"
       xlink:href="#glyph0-31" />
    <use
       height="100%"
       width="100%"
       id="use730"
       y="15.033474"
       x="369.19238"
       xlink:href="#glyph0-24" />
    <use
       height="100%"
       width="100%"
       id="use732"
       y="15.033474"
       x="376.16394"
       xlink:href="#glyph0-15" />
    <use
       height="100%"
       width="100%"
       id="use734"
       y="15.033474"
       x="379.66058"
       xlink:href="#glyph0-47" />
    <use
       height="100%"
       width="100%"
       id="use736"
       y="15.033474"
       x="386.17047"
       xlink:href="#glyph0-23" />
    <use
       height="100%"
       width="100%"
       id="use738"
       y="15.033474"
       x="392.90033"
       xlink:href="#glyph0-24" />
    <use
       height="100%"
       width="100%"
       id="use740"
       y="15.033474"
       x="399.87192"
       xlink:href="#glyph0-15" />
    <use
       height="100%"
       width="100%"
       id="use742"
       y="15.033474"
       x="403.36853"
       xlink:href="#glyph0-36" />
    <use
       height="100%"
       width="100%"
       id="use744"
       y="15.033474"
       x="410.00183"
       xlink:href="#glyph0-9" />
    <use
       height="100%"
       width="100%"
       id="use746"
       y="15.033474"
       x="416.51172"
       xlink:href="#glyph0-22" />
    <use
       height="100%"
       width="100%"
       id="use748"
       y="15.033474"
       x="423.49414"
       xlink:href="#glyph0-1" />
    <use
       height="100%"
       width="100%"
       id="use750"
       y="15.033474"
       x="430.23486"
       xlink:href="#glyph0-6" />
    <use
       height="100%"
       width="100%"
       id="use752"
       y="15.033474"
       x="440.9502"
       xlink:href="#glyph0-31" />
    <use
       height="100%"
       width="100%"
       id="use754"
       y="15.033474"
       x="447.71777"
       xlink:href="#glyph0-15" />
    <use
       height="100%"
       width="100%"
       id="use756"
       y="15.033474"
       x="451.21442"
       xlink:href="#glyph0-37" />
    <use
       height="100%"
       width="100%"
       id="use758"
       y="15.033474"
       x="458.74994"
       xlink:href="#glyph0-31" />
    <use
       height="100%"
       width="100%"
       id="use760"
       y="15.033474"
       x="465.51752"
       xlink:href="#glyph0-4" />
    <use
       height="100%"
       width="100%"
       id="use762"
       y="15.033474"
       x="469.7984"
       xlink:href="#glyph0-23" />
  </g>
  <path
     inkscape:connector-curvature="0"
     id="path766"
     d="M 371.10156,61.10156 V 74.875"
     style="fill:none;stroke:#000000;stroke-width:1;stroke-linecap:butt;stroke-linejoin:miter;stroke-miterlimit:10;stroke-opacity:1" />
  <path
     inkscape:connector-curvature="0"
     id="path768"
     d="m 371.10156,80.875 -4,-8 4,2 4,-2 z m 0,0"
     style="fill:#000000;fill-opacity:1;fill-rule:evenodd;stroke:#000000;stroke-width:1;stroke-linecap:butt;stroke-linejoin:miter;stroke-miterlimit:10;stroke-opacity:1" />
  <path
     inkscape:connector-curvature="0"
     id="path770"
     d="M 371.10156,121.10156 V 134.875"
     style="fill:none;stroke:#000000;stroke-width:1;stroke-linecap:butt;stroke-linejoin:miter;stroke-miterlimit:10;stroke-opacity:1" />
  <path
     inkscape:connector-curvature="0"
     id="path772"
     d="m 371.10156,140.875 -4,-8 4,2 4,-2 z m 0,0"
     style="fill:#000000;fill-opacity:1;fill-rule:evenodd;stroke:#000000;stroke-width:1;stroke-linecap:butt;stroke-linejoin:miter;stroke-miterlimit:10;stroke-opacity:1" />
  <path
     inkscape:connector-curvature="0"
     id="path774"
     d="m 281.10156,81.10156 v 40"
     style="fill:none;stroke:#000000;stroke-width:1;stroke-linecap:butt;stroke-linejoin:miter;stroke-miterlimit:10;stroke-opacity:1" />
  <path
     inkscape:connector-curvature="0"
     id="path776"
     d="m 461.10156,81.10156 v 40"
     style="fill:none;stroke:#000000;stroke-width:1;stroke-linecap:butt;stroke-linejoin:miter;stroke-miterlimit:10;stroke-opacity:1" />
</svg>
